L-System Generator Logfile
Created on 2017-12-06 21:05:40.561093
Author: Jessica Baron

L-System Attributes:
	Fractal Name: 				KochIsland
	Derivation Depth: 			5
	Line segment length: 		0.1
	Rotation angle (radians): 	1.570795
	Using OpenCL kernels? 		False
	Axiom String: 				A+A+A+A

Runtimes:
	Depth: 			0
	String: 		A+A+A+A
	String length: 	7
	Derivation Kernel/Function Runtimes (Milliseconds):
		1.  Successor counting: 			0.0073909759521484375
		2.  Scan/prefix-sum of counts: 		0.041961669921875
		3.  Rewriting: 						0.0247955322265625


	Depth: 			1
	String: 		A+A-A-AA+A+A-A+A+A-A-AA+A+A-A+A+A-A-AA+A+A-A+A+A-A-AA+A+A-A
	String length: 	59
	Derivation Kernel/Function Runtimes (Milliseconds):
		1.  Successor counting: 			0.017881393432617188
		2.  Scan/prefix-sum of counts: 		0.01239776611328125
		3.  Rewriting: 						0.07843971252441406


	Depth: 			2
	String: 		A+A-A-AA+A+A-A+A+A-A-AA+A+A-A-A+A-A-AA+A+A-A-A+A-A-AA+A+A-AA+A-A-AA+A+A-A+A+A-A-AA+A+A-A+A+A-A-AA+A+A-A-A+A-A-AA+A+A-A+A+A-A-AA+A+A-A+A+A-A-AA+A+A-A-A+A-A-AA+A+A-A-A+A-A-AA+A+A-AA+A-A-AA+A+A-A+A+A-A-AA+A+A-A+A+A-A-AA+A+A-A-A+A-A-AA+A+A-A+A+A-A-AA+A+A-A+A+A-A-AA+A+A-A-A+A-A-AA+A+A-A-A+A-A-AA+A+A-AA+A-A-AA+A+A-A+A+A-A-AA+A+A-A+A+A-A-AA+A+A-A-A+A-A-AA+A+A-A+A+A-A-AA+A+A-A+A+A-A-AA+A+A-A-A+A-A-AA+A+A-A-A+A-A-AA+A+A-AA+A-A-AA+A+A-A+A+A-A-AA+A+A-A+A+A-A-AA+A+A-A-A+A-A-AA+A+A-A
	String length: 	475
	Derivation Kernel/Function Runtimes (Milliseconds):
		1.  Successor counting: 			0.095367431640625
		2.  Scan/prefix-sum of counts: 		0.0209808349609375
		3.  Rewriting: 						0.5724430084228516


	Depth: 			3
	String: 		A+A-A-AA+A+A-A+A+A-A-AA+A+A-A-A+A-A-AA+A+A-A-A+A-A-AA+A+A-AA+A-A-AA+A+A-A+A+A-A-AA+A+A-A+A+A-A-AA+A+A-A-A+A-A-AA+A+A-A+A+A-A-AA+A+A-A+A+A-A-AA+A+A-A-A+A-A-AA+A+A-A-A+A-A-AA+A+A-AA+A-A-AA+A+A-A+A+A-A-AA+A+A-A+A+A-A-AA+A+A-A-A+A-A-AA+A+A-A-A+A-A-AA+A+A-A+A+A-A-AA+A+A-A-A+A-A-AA+A+A-A-A+A-A-AA+A+A-AA+A-A-AA+A+A-A+A+A-A-AA+A+A-A+A+A-A-AA+A+A-A-A+A-A-AA+A+A-A-A+A-A-AA+A+A-A+A+A-A-AA+A+A-A-A+A-A-AA+A+A-A-A+A-A-AA+A+A-AA+A-A-AA+A+A-A+A+A-A-AA+A+A-A+A+A-A-AA+A+A-A-A+A-A-AA+A+A-AA+A-A-AA+A+A-A+A+A-A-AA+A+A-A-A+A-A-AA+A+A-A-A+A-A-AA+A+A-AA+A-A-AA+A+A-A+A+A-A-AA+A+A-A+A+A-A-AA+A+A-A-A+A-A-AA+A+A-A+A+A-A-AA+A+A-A+A+A-A-AA+A+A-A-A+A-A-AA+A+A-A-A+A-A-AA+A+A-AA+A-A-AA+A+A-A+A+A-A-AA+A+A-A+A+A-A-AA+A+A-A-A+A-A-AA+A+A-A+A+A-A-AA+A+A-A+A+A-A-AA+A+A-A-A+A-A-AA+A+A-A-A+A-A-AA+A+A-AA+A-A-AA+A+A-A+A+A-A-AA+A+A-A+A+A-A-AA+A+A-A-A+A-A-AA+A+A-A-A+A-A-AA+A+A-A+A+A-A-AA+A+A-A-A+A-A-AA+A+A-A-A+A-A-AA+A+A-AA+A-A-AA+A+A-A+A+A-A-AA+A+A-A+A+A-A-AA+A+A-A-A+A-A-AA+A+A-A+A+A-A-AA+A+A-A+A+A-A-AA+A+A-A-A+A-A-AA+A+A-A-A+A-A-AA+A+A-AA+A-A-AA+A+A-A+A+A-A-AA+A+A-A+A+A-A-AA+A+A-A-A+A-A-AA+A+A-A+A+A-A-AA+A+A-A+A+A-A-AA+A+A-A-A+A-A-AA+A+A-A-A+A-A-AA+A+A-AA+A-A-AA+A+A-A+A+A-A-AA+A+A-A+A+A-A-AA+A+A-A-A+A-A-AA+A+A-A-A+A-A-AA+A+A-A+A+A-A-AA+A+A-A-A+A-A-AA+A+A-A-A+A-A-AA+A+A-AA+A-A-AA+A+A-A+A+A-A-AA+A+A-A+A+A-A-AA+A+A-A-A+A-A-AA+A+A-A-A+A-A-AA+A+A-A+A+A-A-AA+A+A-A-A+A-A-AA+A+A-A-A+A-A-AA+A+A-AA+A-A-AA+A+A-A+A+A-A-AA+A+A-A+A+A-A-AA+A+A-A-A+A-A-AA+A+A-AA+A-A-AA+A+A-A+A+A-A-AA+A+A-A-A+A-A-AA+A+A-A-A+A-A-AA+A+A-AA+A-A-AA+A+A-A+A+A-A-AA+A+A-A+A+A-A-AA+A+A-A-A+A-A-AA+A+A-A+A+A-A-AA+A+A-A+A+A-A-AA+A+A-A-A+A-A-AA+A+A-A-A+A-A-AA+A+A-AA+A-A-AA+A+A-A+A+A-A-AA+A+A-A+A+A-A-AA+A+A-A-A+A-A-AA+A+A-A+A+A-A-AA+A+A-A+A+A-A-AA+A+A-A-A+A-A-AA+A+A-A-A+A-A-AA+A+A-AA+A-A-AA+A+A-A+A+A-A-AA+A+A-A+A+A-A-AA+A+A-A-A+A-A-AA+A+A-A-A+A-A-AA+A+A-A+A+A-A-AA+A+A-A-A+A-A-AA+A+A-A-A+A-A-AA+A+A-AA+A-A-AA+A+A-A+A+A-A-AA+A+A-A+A+A-A-AA+A+A-A-A+A-A-AA+A+A-A+A+A-A-AA+A+A-A+A+A-A-AA+A+A-A-A+A-A-AA+A+A-A-A+A-A-AA+A+A-AA+A-A-AA+A+A-A+A+A-A-AA+A+A-A+A+A-A-AA+A+A-A-A+A-A-AA+A+A-A+A+A-A-AA+A+A-A+A+A-A-AA+A+A-A-A+A-A-AA+A+A-A-A+A-A-AA+A+A-AA+A-A-AA+A+A-A+A+A-A-AA+A+A-A+A+A-A-AA+A+A-A-A+A-A-AA+A+A-A-A+A-A-AA+A+A-A+A+A-A-AA+A+A-A-A+A-A-AA+A+A-A-A+A-A-AA+A+A-AA+A-A-AA+A+A-A+A+A-A-AA+A+A-A+A+A-A-AA+A+A-A-A+A-A-AA+A+A-A-A+A-A-AA+A+A-A+A+A-A-AA+A+A-A-A+A-A-AA+A+A-A-A+A-A-AA+A+A-AA+A-A-AA+A+A-A+A+A-A-AA+A+A-A+A+A-A-AA+A+A-A-A+A-A-AA+A+A-AA+A-A-AA+A+A-A+A+A-A-AA+A+A-A-A+A-A-AA+A+A-A-A+A-A-AA+A+A-AA+A-A-AA+A+A-A+A+A-A-AA+A+A-A+A+A-A-AA+A+A-A-A+A-A-AA+A+A-A+A+A-A-AA+A+A-A+A+A-A-AA+A+A-A-A+A-A-AA+A+A-A-A+A-A-AA+A+A-AA+A-A-AA+A+A-A+A+A-A-AA+A+A-A+A+A-A-AA+A+A-A-A+A-A-AA+A+A-A+A+A-A-AA+A+A-A+A+A-A-AA+A+A-A-A+A-A-AA+A+A-A-A+A-A-AA+A+A-AA+A-A-AA+A+A-A+A+A-A-AA+A+A-A+A+A-A-AA+A+A-A-A+A-A-AA+A+A-A-A+A-A-AA+A+A-A+A+A-A-AA+A+A-A-A+A-A-AA+A+A-A-A+A-A-AA+A+A-AA+A-A-AA+A+A-A+A+A-A-AA+A+A-A+A+A-A-AA+A+A-A-A+A-A-AA+A+A-A+A+A-A-AA+A+A-A+A+A-A-AA+A+A-A-A+A-A-AA+A+A-A-A+A-A-AA+A+A-AA+A-A-AA+A+A-A+A+A-A-AA+A+A-A+A+A-A-AA+A+A-A-A+A-A-AA+A+A-A+A+A-A-AA+A+A-A+A+A-A-AA+A+A-A-A+A-A-AA+A+A-A-A+A-A-AA+A+A-AA+A-A-AA+A+A-A+A+A-A-AA+A+A-A+A+A-A-AA+A+A-A-A+A-A-AA+A+A-A-A+A-A-AA+A+A-A+A+A-A-AA+A+A-A-A+A-A-AA+A+A-A-A+A-A-AA+A+A-AA+A-A-AA+A+A-A+A+A-A-AA+A+A-A+A+A-A-AA+A+A-A-A+A-A-AA+A+A-A-A+A-A-AA+A+A-A+A+A-A-AA+A+A-A-A+A-A-AA+A+A-A-A+A-A-AA+A+A-AA+A-A-AA+A+A-A+A+A-A-AA+A+A-A+A+A-A-AA+A+A-A-A+A-A-AA+A+A-AA+A-A-AA+A+A-A+A+A-A-AA+A+A-A-A+A-A-AA+A+A-A-A+A-A-AA+A+A-AA+A-A-AA+A+A-A+A+A-A-AA+A+A-A+A+A-A-AA+A+A-A-A+A-A-AA+A+A-A+A+A-A-AA+A+A-A+A+A-A-AA+A+A-A-A+A-A-AA+A+A-A-A+A-A-AA+A+A-AA+A-A-AA+A+A-A+A+A-A-AA+A+A-A+A+A-A-AA+A+A-A-A+A-A-AA+A+A-A+A+A-A-AA+A+A-A+A+A-A-AA+A+A-A-A+A-A-AA+A+A-A-A+A-A-AA+A+A-AA+A-A-AA+A+A-A+A+A-A-AA+A+A-A+A+A-A-AA+A+A-A-A+A-A-AA+A+A-A-A+A-A-AA+A+A-A+A+A-A-AA+A+A-A-A+A-A-AA+A+A-A-A+A-A-AA+A+A-AA+A-A-AA+A+A-A+A+A-A-AA+A+A-A+A+A-A-AA+A+A-A-A+A-A-AA+A+A-A
	String length: 	3803
	Derivation Kernel/Function Runtimes (Milliseconds):
		1.  Successor counting: 			0.6582736968994141
		2.  Scan/prefix-sum of counts: 		0.027418136596679688
		3.  Rewriting: 						4.678010940551758


	Depth: 			4
	String: 		A+A-A-AA+A+A-A+A+A-A-AA+A+A-A-A+A-A-AA+A+A-A-A+A-A-AA+A+A-AA+A-A-AA+A+A-A+A+A-A-AA+A+A-A+A+A-A-AA+A+A-A-A+A-A-AA+A+A-A+A+A-A-AA+A+A-A+A+A-A-AA+A+A-A-A+A-A-AA+A+A-A-A+A-A-AA+A+A-AA+A-A-AA+A+A-A+A+A-A-AA+A+A-A+A+A-A-AA+A+A-A-A+A-A-AA+A+A-A-A+A-A-AA+A+A-A+A+A-A-AA+A+A-A-A+A-A-AA+A+A-A-A+A-A-AA+A+A-AA+A-A-AA+A+A-A+A+A-A-AA+A+A-A+A+A-A-AA+A+A-A-A+A-A-AA+A+A-A-A+A-A-AA+A+A-A+A+A-A-AA+A+A-A-A+A-A-AA+A+A-A-A+A-A-AA+A+A-AA+A-A-AA+A+A-A+A+A-A-AA+A+A-A+A+A-A-AA+A+A-A-A+A-A-AA+A+A-AA+A-A-AA+A+A-A+A+A-A-AA+A+A-A-A+A-A-AA+A+A-A-A+A-A-AA+A+A-AA+A-A-AA+A+A-A+A+A-A-AA+A+A-A+A+A-A-AA+A+A-A-A+A-A-AA+A+A-A+A+A-A-AA+A+A-A+A+A-A-AA+A+A-A-A+A-A-AA+A+A-A-A+A-A-AA+A+A-AA+A-A-AA+A+A-A+A+A-A-AA+A+A-A+A+A-A-AA+A+A-A-A+A-A-AA+A+A-A+A+A-A-AA+A+A-A+A+A-A-AA+A+A-A-A+A-A-AA+A+A-A-A+A-A-AA+A+A-AA+A-A-AA+A+A-A+A+A-A-AA+A+A-A+A+A-A-AA+A+A-A-A+A-A-AA+A+A-A-A+A-A-AA+A+A-A+A+A-A-AA+A+A-A-A+A-A-AA+A+A-A-A+A-A-AA+A+A-AA+A-A-AA+A+A-A+A+A-A-AA+A+A-A+A+A-A-AA+A+A-A-A+A-A-AA+A+A-A+A+A-A-AA+A+A-A+A+A-A-AA+A+A-A-A+A-A-AA+A+A-A-A+A-A-AA+A+A-AA+A-A-AA+A+A-A+A+A-A-AA+A+A-A+A+A-A-AA+A+A-A-A+A-A-AA+A+A-A+A+A-A-AA+A+A-A+A+A-A-AA+A+A-A-A+A-A-AA+A+A-A-A+A-A-AA+A+A-AA+A-A-AA+A+A-A+A+A-A-AA+A+A-A+A+A-A-AA+A+A-A-A+A-A-AA+A+A-A-A+A-A-AA+A+A-A+A+A-A-AA+A+A-A-A+A-A-AA+A+A-A-A+A-A-AA+A+A-AA+A-A-AA+A+A-A+A+A-A-AA+A+A-A+A+A-A-AA+A+A-A-A+A-A-AA+A+A-A-A+A-A-AA+A+A-A+A+A-A-AA+A+A-A-A+A-A-AA+A+A-A-A+A-A-AA+A+A-AA+A-A-AA+A+A-A+A+A-A-AA+A+A-A+A+A-A-AA+A+A-A-A+A-A-AA+A+A-AA+A-A-AA+A+A-A+A+A-A-AA+A+A-A-A+A-A-AA+A+A-A-A+A-A-AA+A+A-AA+A-A-AA+A+A-A+A+A-A-AA+A+A-A+A+A-A-AA+A+A-A-A+A-A-AA+A+A-A+A+A-A-AA+A+A-A+A+A-A-AA+A+A-A-A+A-A-AA+A+A-A-A+A-A-AA+A+A-AA+A-A-AA+A+A-A+A+A-A-AA+A+A-A+A+A-A-AA+A+A-A-A+A-A-AA+A+A-A+A+A-A-AA+A+A-A+A+A-A-AA+A+A-A-A+A-A-AA+A+A-A-A+A-A-AA+A+A-AA+A-A-AA+A+A-A+A+A-A-AA+A+A-A+A+A-A-AA+A+A-A-A+A-A-AA+A+A-A-A+A-A-AA+A+A-A+A+A-A-AA+A+A-A-A+A-A-AA+A+A-A-A+A-A-AA+A+A-AA+A-A-AA+A+A-A+A+A-A-AA+A+A-A+A+A-A-AA+A+A-A-A+A-A-AA+A+A-A-A+A-A-AA+A+A-A+A+A-A-AA+A+A-A-A+A-A-AA+A+A-A-A+A-A-AA+A+A-AA+A-A-AA+A+A-A+A+A-A-AA+A+A-A+A+A-A-AA+A+A-A-A+A-A-AA+A+A-A+A+A-A-AA+A+A-A+A+A-A-AA+A+A-A-A+A-A-AA+A+A-A-A+A-A-AA+A+A-AA+A-A-AA+A+A-A+A+A-A-AA+A+A-A+A+A-A-AA+A+A-A-A+A-A-AA+A+A-A-A+A-A-AA+A+A-A+A+A-A-AA+A+A-A-A+A-A-AA+A+A-A-A+A-A-AA+A+A-AA+A-A-AA+A+A-A+A+A-A-AA+A+A-A+A+A-A-AA+A+A-A-A+A-A-AA+A+A-A-A+A-A-AA+A+A-A+A+A-A-AA+A+A-A-A+A-A-AA+A+A-A-A+A-A-AA+A+A-AA+A-A-AA+A+A-A+A+A-A-AA+A+A-A+A+A-A-AA+A+A-A-A+A-A-AA+A+A-AA+A-A-AA+A+A-A+A+A-A-AA+A+A-A-A+A-A-AA+A+A-A-A+A-A-AA+A+A-AA+A-A-AA+A+A-A+A+A-A-AA+A+A-A+A+A-A-AA+A+A-A-A+A-A-AA+A+A-A+A+A-A-AA+A+A-A+A+A-A-AA+A+A-A-A+A-A-AA+A+A-A-A+A-A-AA+A+A-AA+A-A-AA+A+A-A+A+A-A-AA+A+A-A+A+A-A-AA+A+A-A-A+A-A-AA+A+A-A+A+A-A-AA+A+A-A+A+A-A-AA+A+A-A-A+A-A-AA+A+A-A-A+A-A-AA+A+A-AA+A-A-AA+A+A-A+A+A-A-AA+A+A-A+A+A-A-AA+A+A-A-A+A-A-AA+A+A-A-A+A-A-AA+A+A-A+A+A-A-AA+A+A-A-A+A-A-AA+A+A-A-A+A-A-AA+A+A-AA+A-A-AA+A+A-A+A+A-A-AA+A+A-A+A+A-A-AA+A+A-A-A+A-A-AA+A+A-A-A+A-A-AA+A+A-A+A+A-A-AA+A+A-A-A+A-A-AA+A+A-A-A+A-A-AA+A+A-AA+A-A-AA+A+A-A+A+A-A-AA+A+A-A+A+A-A-AA+A+A-A-A+A-A-AA+A+A-A+A+A-A-AA+A+A-A+A+A-A-AA+A+A-A-A+A-A-AA+A+A-A-A+A-A-AA+A+A-AA+A-A-AA+A+A-A+A+A-A-AA+A+A-A+A+A-A-AA+A+A-A-A+A-A-AA+A+A-A-A+A-A-AA+A+A-A+A+A-A-AA+A+A-A-A+A-A-AA+A+A-A-A+A-A-AA+A+A-AA+A-A-AA+A+A-A+A+A-A-AA+A+A-A+A+A-A-AA+A+A-A-A+A-A-AA+A+A-A-A+A-A-AA+A+A-A+A+A-A-AA+A+A-A-A+A-A-AA+A+A-A-A+A-A-AA+A+A-AA+A-A-AA+A+A-A+A+A-A-AA+A+A-A+A+A-A-AA+A+A-A-A+A-A-AA+A+A-AA+A-A-AA+A+A-A+A+A-A-AA+A+A-A-A+A-A-AA+A+A-A-A+A-A-AA+A+A-AA+A-A-AA+A+A-A+A+A-A-AA+A+A-A+A+A-A-AA+A+A-A-A+A-A-AA+A+A-A+A+A-A-AA+A+A-A+A+A-A-AA+A+A-A-A+A-A-AA+A+A-A-A+A-A-AA+A+A-AA+A-A-AA+A+A-A+A+A-A-AA+A+A-A+A+A-A-AA+A+A-A-A+A-A-AA+A+A-A+A+A-A-AA+A+A-A+A+A-A-AA+A+A-A-A+A-A-AA+A+A-A-A+A-A-AA+A+A-AA+A-A-AA+A+A-A+A+A-A-AA+A+A-A+A+A-A-AA+A+A-A-A+A-A-AA+A+A-A-A+A-A-AA+A+A-A+A+A-A-AA+A+A-A-A+A-A-AA+A+A-A-A+A-A-AA+A+A-AA+A-A-AA+A+A-A+A+A-A-AA+A+A-A+A+A-A-AA+A+A-A-A+A-A-AA+A+A-AA+A-A-AA+A+A-A+A+A-A-AA+A+A-A-A+A-A-AA+A+A-A-A+A-A-AA+A+A-AA+A-A-AA+A+A-A+A+A-A-AA+A+A-A+A+A-A-AA+A+A-A-A+A-A-AA+A+A-A+A+A-A-AA+A+A-A+A+A-A-AA+A+A-A-A+A-A-AA+A+A-A-A+A-A-AA+A+A-AA+A-A-AA+A+A-A+A+A-A-AA+A+A-A+A+A-A-AA+A+A-A-A+A-A-AA+A+A-A-A+A-A-AA+A+A-A+A+A-A-AA+A+A-A-A+A-A-AA+A+A-A-A+A-A-AA+A+A-AA+A-A-AA+A+A-A+A+A-A-AA+A+A-A+A+A-A-AA+A+A-A-A+A-A-AA+A+A-A-A+A-A-AA+A+A-A+A+A-A-AA+A+A-A-A+A-A-AA+A+A-A-A+A-A-AA+A+A-AA+A-A-AA+A+A-A+A+A-A-AA+A+A-A+A+A-A-AA+A+A-A-A+A-A-AA+A+A-AA+A-A-AA+A+A-A+A+A-A-AA+A+A-A-A+A-A-AA+A+A-A-A+A-A-AA+A+A-AA+A-A-AA+A+A-A+A+A-A-AA+A+A-A+A+A-A-AA+A+A-A-A+A-A-AA+A+A-A+A+A-A-AA+A+A-A+A+A-A-AA+A+A-A-A+A-A-AA+A+A-A-A+A-A-AA+A+A-AA+A-A-AA+A+A-A+A+A-A-AA+A+A-A+A+A-A-AA+A+A-A-A+A-A-AA+A+A-A+A+A-A-AA+A+A-A+A+A-A-AA+A+A-A-A+A-A-AA+A+A-A-A+A-A-AA+A+A-AA+A-A-AA+A+A-A+A+A-A-AA+A+A-A+A+A-A-AA+A+A-A-A+A-A-AA+A+A-A-A+A-A-AA+A+A-A+A+A-A-AA+A+A-A-A+A-A-AA+A+A-A-A+A-A-AA+A+A-AA+A-A-AA+A+A-A+A+A-A-AA+A+A-A+A+A-A-AA+A+A-A-A+A-A-AA+A+A-A+A+A-A-AA+A+A-A+A+A-A-AA+A+A-A-A+A-A-AA+A+A-A-A+A-A-AA+A+A-AA+A-A-AA+A+A-A+A+A-A-AA+A+A-A+A+A-A-AA+A+A-A-A+A-A-AA+A+A-A+A+A-A-AA+A+A-A+A+A-A-AA+A+A-A-A+A-A-AA+A+A-A-A+A-A-AA+A+A-AA+A-A-AA+A+A-A+A+A-A-AA+A+A-A+A+A-A-AA+A+A-A-A+A-A-AA+A+A-A-A+A-A-AA+A+A-A+A+A-A-AA+A+A-A-A+A-A-AA+A+A-A-A+A-A-AA+A+A-AA+A-A-AA+A+A-A+A+A-A-AA+A+A-A+A+A-A-AA+A+A-A-A+A-A-AA+A+A-A-A+A-A-AA+A+A-A+A+A-A-AA+A+A-A-A+A-A-AA+A+A-A-A+A-A-AA+A+A-AA+A-A-AA+A+A-A+A+A-A-AA+A+A-A+A+A-A-AA+A+A-A-A+A-A-AA+A+A-AA+A-A-AA+A+A-A+A+A-A-AA+A+A-A-A+A-A-AA+A+A-A-A+A-A-AA+A+A-AA+A-A-AA+A+A-A+A+A-A-AA+A+A-A+A+A-A-AA+A+A-A-A+A-A-AA+A+A-A+A+A-A-AA+A+A-A+A+A-A-AA+A+A-A-A+A-A-AA+A+A-A-A+A-A-AA+A+A-AA+A-A-AA+A+A-A+A+A-A-AA+A+A-A+A+A-A-AA+A+A-A-A+A-A-AA+A+A-A+A+A-A-AA+A+A-A+A+A-A-AA+A+A-A-A+A-A-AA+A+A-A-A+A-A-AA+A+A-AA+A-A-AA+A+A-A+A+A-A-AA+A+A-A+A+A-A-AA+A+A-A-A+A-A-AA+A+A-A-A+A-A-AA+A+A-A+A+A-A-AA+A+A-A-A+A-A-AA+A+A-A-A+A-A-AA+A+A-AA+A-A-AA+A+A-A+A+A-A-AA+A+A-A+A+A-A-AA+A+A-A-A+A-A-AA+A+A-A+A+A-A-AA+A+A-A+A+A-A-AA+A+A-A-A+A-A-AA+A+A-A-A+A-A-AA+A+A-AA+A-A-AA+A+A-A+A+A-A-AA+A+A-A+A+A-A-AA+A+A-A-A+A-A-AA+A+A-A+A+A-A-AA+A+A-A+A+A-A-AA+A+A-A-A+A-A-AA+A+A-A-A+A-A-AA+A+A-AA+A-A-AA+A+A-A+A+A-A-AA+A+A-A+A+A-A-AA+A+A-A-A+A-A-AA+A+A-A-A+A-A-AA+A+A-A+A+A-A-AA+A+A-A-A+A-A-AA+A+A-A-A+A-A-AA+A+A-AA+A-A-AA+A+A-A+A+A-A-AA+A+A-A+A+A-A-AA+A+A-A-A+A-A-AA+A+A-A-A+A-A-AA+A+A-A+A+A-A-AA+A+A-A-A+A-A-AA+A+A-A-A+A-A-AA+A+A-AA+A-A-AA+A+A-A+A+A-A-AA+A+A-A+A+A-A-AA+A+A-A-A+A-A-AA+A+A-AA+A-A-AA+A+A-A+A+A-A-AA+A+A-A-A+A-A-AA+A+A-A-A+A-A-AA+A+A-AA+A-A-AA+A+A-A+A+A-A-AA+A+A-A+A+A-A-AA+A+A-A-A+A-A-AA+A+A-A+A+A-A-AA+A+A-A+A+A-A-AA+A+A-A-A+A-A-AA+A+A-A-A+A-A-AA+A+A-AA+A-A-AA+A+A-A+A+A-A-AA+A+A-A+A+A-A-AA+A+A-A-A+A-A-AA+A+A-A+A+A-A-AA+A+A-A+A+A-A-AA+A+A-A-A+A-A-AA+A+A-A-A+A-A-AA+A+A-AA+A-A-AA+A+A-A+A+A-A-AA+A+A-A+A+A-A-AA+A+A-A-A+A-A-AA+A+A-A-A+A-A-AA+A+A-A+A+A-A-AA+A+A-A-A+A-A-AA+A+A-A-A+A-A-AA+A+A-AA+A-A-AA+A+A-A+A+A-A-AA+A+A-A+A+A-A-AA+A+A-A-A+A-A-AA+A+A-A-A+A-A-AA+A+A-A+A+A-A-AA+A+A-A-A+A-A-AA+A+A-A-A+A-A-AA+A+A-AA+A-A-AA+A+A-A+A+A-A-AA+A+A-A+A+A-A-AA+A+A-A-A+A-A-AA+A+A-A+A+A-A-AA+A+A-A+A+A-A-AA+A+A-A-A+A-A-AA+A+A-A-A+A-A-AA+A+A-AA+A-A-AA+A+A-A+A+A-A-AA+A+A-A+A+A-A-AA+A+A-A-A+A-A-AA+A+A-A-A+A-A-AA+A+A-A+A+A-A-AA+A+A-A-A+A-A-AA+A+A-A-A+A-A-AA+A+A-AA+A-A-AA+A+A-A+A+A-A-AA+A+A-A+A+A-A-AA+A+A-A-A+A-A-AA+A+A-A-A+A-A-AA+A+A-A+A+A-A-AA+A+A-A-A+A-A-AA+A+A-A-A+A-A-AA+A+A-AA+A-A-AA+A+A-A+A+A-A-AA+A+A-A+A+A-A-AA+A+A-A-A+A-A-AA+A+A-AA+A-A-AA+A+A-A+A+A-A-AA+A+A-A-A+A-A-AA+A+A-A-A+A-A-AA+A+A-AA+A-A-AA+A+A-A+A+A-A-AA+A+A-A+A+A-A-AA+A+A-A-A+A-A-AA+A+A-A+A+A-A-AA+A+A-A+A+A-A-AA+A+A-A-A+A-A-AA+A+A-A-A+A-A-AA+A+A-AA+A-A-AA+A+A-A+A+A-A-AA+A+A-A+A+A-A-AA+A+A-A-A+A-A-AA+A+A-A+A+A-A-AA+A+A-A+A+A-A-AA+A+A-A-A+A-A-AA+A+A-A-A+A-A-AA+A+A-AA+A-A-AA+A+A-A+A+A-A-AA+A+A-A+A+A-A-AA+A+A-A-A+A-A-AA+A+A-A-A+A-A-AA+A+A-A+A+A-A-AA+A+A-A-A+A-A-AA+A+A-A-A+A-A-AA+A+A-AA+A-A-AA+A+A-A+A+A-A-AA+A+A-A+A+A-A-AA+A+A-A-A+A-A-AA+A+A-A+A+A-A-AA+A+A-A+A+A-A-AA+A+A-A-A+A-A-AA+A+A-A-A+A-A-AA+A+A-AA+A-A-AA+A+A-A+A+A-A-AA+A+A-A+A+A-A-AA+A+A-A-A+A-A-AA+A+A-A+A+A-A-AA+A+A-A+A+A-A-AA+A+A-A-A+A-A-AA+A+A-A-A+A-A-AA+A+A-AA+A-A-AA+A+A-A+A+A-A-AA+A+A-A+A+A-A-AA+A+A-A-A+A-A-AA+A+A-A-A+A-A-AA+A+A-A+A+A-A-AA+A+A-A-A+A-A-AA+A+A-A-A+A-A-AA+A+A-AA+A-A-AA+A+A-A+A+A-A-AA+A+A-A+A+A-A-AA+A+A-A-A+A-A-AA+A+A-A-A+A-A-AA+A+A-A+A+A-A-AA+A+A-A-A+A-A-AA+A+A-A-A+A-A-AA+A+A-AA+A-A-AA+A+A-A+A+A-A-AA+A+A-A+A+A-A-AA+A+A-A-A+A-A-AA+A+A-AA+A-A-AA+A+A-A+A+A-A-AA+A+A-A-A+A-A-AA+A+A-A-A+A-A-AA+A+A-AA+A-A-AA+A+A-A+A+A-A-AA+A+A-A+A+A-A-AA+A+A-A-A+A-A-AA+A+A-A+A+A-A-AA+A+A-A+A+A-A-AA+A+A-A-A+A-A-AA+A+A-A-A+A-A-AA+A+A-AA+A-A-AA+A+A-A+A+A-A-AA+A+A-A+A+A-A-AA+A+A-A-A+A-A-AA+A+A-A+A+A-A-AA+A+A-A+A+A-A-AA+A+A-A-A+A-A-AA+A+A-A-A+A-A-AA+A+A-AA+A-A-AA+A+A-A+A+A-A-AA+A+A-A+A+A-A-AA+A+A-A-A+A-A-AA+A+A-A-A+A-A-AA+A+A-A+A+A-A-AA+A+A-A-A+A-A-AA+A+A-A-A+A-A-AA+A+A-AA+A-A-AA+A+A-A+A+A-A-AA+A+A-A+A+A-A-AA+A+A-A-A+A-A-AA+A+A-A+A+A-A-AA+A+A-A+A+A-A-AA+A+A-A-A+A-A-AA+A+A-A-A+A-A-AA+A+A-AA+A-A-AA+A+A-A+A+A-A-AA+A+A-A+A+A-A-AA+A+A-A-A+A-A-AA+A+A-A+A+A-A-AA+A+A-A+A+A-A-AA+A+A-A-A+A-A-AA+A+A-A-A+A-A-AA+A+A-AA+A-A-AA+A+A-A+A+A-A-AA+A+A-A+A+A-A-AA+A+A-A-A+A-A-AA+A+A-A-A+A-A-AA+A+A-A+A+A-A-AA+A+A-A-A+A-A-AA+A+A-A-A+A-A-AA+A+A-AA+A-A-AA+A+A-A+A+A-A-AA+A+A-A+A+A-A-AA+A+A-A-A+A-A-AA+A+A-A-A+A-A-AA+A+A-A+A+A-A-AA+A+A-A-A+A-A-AA+A+A-A-A+A-A-AA+A+A-AA+A-A-AA+A+A-A+A+A-A-AA+A+A-A+A+A-A-AA+A+A-A-A+A-A-AA+A+A-AA+A-A-AA+A+A-A+A+A-A-AA+A+A-A-A+A-A-AA+A+A-A-A+A-A-AA+A+A-AA+A-A-AA+A+A-A+A+A-A-AA+A+A-A+A+A-A-AA+A+A-A-A+A-A-AA+A+A-A+A+A-A-AA+A+A-A+A+A-A-AA+A+A-A-A+A-A-AA+A+A-A-A+A-A-AA+A+A-AA+A-A-AA+A+A-A+A+A-A-AA+A+A-A+A+A-A-AA+A+A-A-A+A-A-AA+A+A-A+A+A-A-AA+A+A-A+A+A-A-AA+A+A-A-A+A-A-AA+A+A-A-A+A-A-AA+A+A-AA+A-A-AA+A+A-A+A+A-A-AA+A+A-A+A+A-A-AA+A+A-A-A+A-A-AA+A+A-A-A+A-A-AA+A+A-A+A+A-A-AA+A+A-A-A+A-A-AA+A+A-A-A+A-A-AA+A+A-AA+A-A-AA+A+A-A+A+A-A-AA+A+A-A+A+A-A-AA+A+A-A-A+A-A-AA+A+A-A-A+A-A-AA+A+A-A+A+A-A-AA+A+A-A-A+A-A-AA+A+A-A-A+A-A-AA+A+A-AA+A-A-AA+A+A-A+A+A-A-AA+A+A-A+A+A-A-AA+A+A-A-A+A-A-AA+A+A-A+A+A-A-AA+A+A-A+A+A-A-AA+A+A-A-A+A-A-AA+A+A-A-A+A-A-AA+A+A-AA+A-A-AA+A+A-A+A+A-A-AA+A+A-A+A+A-A-AA+A+A-A-A+A-A-AA+A+A-A-A+A-A-AA+A+A-A+A+A-A-AA+A+A-A-A+A-A-AA+A+A-A-A+A-A-AA+A+A-AA+A-A-AA+A+A-A+A+A-A-AA+A+A-A+A+A-A-AA+A+A-A-A+A-A-AA+A+A-A-A+A-A-AA+A+A-A+A+A-A-AA+A+A-A-A+A-A-AA+A+A-A-A+A-A-AA+A+A-AA+A-A-AA+A+A-A+A+A-A-AA+A+A-A+A+A-A-AA+A+A-A-A+A-A-AA+A+A-AA+A-A-AA+A+A-A+A+A-A-AA+A+A-A-A+A-A-AA+A+A-A-A+A-A-AA+A+A-AA+A-A-AA+A+A-A+A+A-A-AA+A+A-A+A+A-A-AA+A+A-A-A+A-A-AA+A+A-A+A+A-A-AA+A+A-A+A+A-A-AA+A+A-A-A+A-A-AA+A+A-A-A+A-A-AA+A+A-AA+A-A-AA+A+A-A+A+A-A-AA+A+A-A+A+A-A-AA+A+A-A-A+A-A-AA+A+A-A+A+A-A-AA+A+A-A+A+A-A-AA+A+A-A-A+A-A-AA+A+A-A-A+A-A-AA+A+A-AA+A-A-AA+A+A-A+A+A-A-AA+A+A-A+A+A-A-AA+A+A-A-A+A-A-AA+A+A-A-A+A-A-AA+A+A-A+A+A-A-AA+A+A-A-A+A-A-AA+A+A-A-A+A-A-AA+A+A-AA+A-A-AA+A+A-A+A+A-A-AA+A+A-A+A+A-A-AA+A+A-A-A+A-A-AA+A+A-A-A+A-A-AA+A+A-A+A+A-A-AA+A+A-A-A+A-A-AA+A+A-A-A+A-A-AA+A+A-AA+A-A-AA+A+A-A+A+A-A-AA+A+A-A+A+A-A-AA+A+A-A-A+A-A-AA+A+A-A+A+A-A-AA+A+A-A+A+A-A-AA+A+A-A-A+A-A-AA+A+A-A-A+A-A-AA+A+A-AA+A-A-AA+A+A-A+A+A-A-AA+A+A-A+A+A-A-AA+A+A-A-A+A-A-AA+A+A-A-A+A-A-AA+A+A-A+A+A-A-AA+A+A-A-A+A-A-AA+A+A-A-A+A-A-AA+A+A-AA+A-A-AA+A+A-A+A+A-A-AA+A+A-A+A+A-A-AA+A+A-A-A+A-A-AA+A+A-A-A+A-A-AA+A+A-A+A+A-A-AA+A+A-A-A+A-A-AA+A+A-A-A+A-A-AA+A+A-AA+A-A-AA+A+A-A+A+A-A-AA+A+A-A+A+A-A-AA+A+A-A-A+A-A-AA+A+A-AA+A-A-AA+A+A-A+A+A-A-AA+A+A-A-A+A-A-AA+A+A-A-A+A-A-AA+A+A-AA+A-A-AA+A+A-A+A+A-A-AA+A+A-A+A+A-A-AA+A+A-A-A+A-A-AA+A+A-A+A+A-A-AA+A+A-A+A+A-A-AA+A+A-A-A+A-A-AA+A+A-A-A+A-A-AA+A+A-AA+A-A-AA+A+A-A+A+A-A-AA+A+A-A+A+A-A-AA+A+A-A-A+A-A-AA+A+A-A+A+A-A-AA+A+A-A+A+A-A-AA+A+A-A-A+A-A-AA+A+A-A-A+A-A-AA+A+A-AA+A-A-AA+A+A-A+A+A-A-AA+A+A-A+A+A-A-AA+A+A-A-A+A-A-AA+A+A-A-A+A-A-AA+A+A-A+A+A-A-AA+A+A-A-A+A-A-AA+A+A-A-A+A-A-AA+A+A-AA+A-A-AA+A+A-A+A+A-A-AA+A+A-A+A+A-A-AA+A+A-A-A+A-A-AA+A+A-AA+A-A-AA+A+A-A+A+A-A-AA+A+A-A-A+A-A-AA+A+A-A-A+A-A-AA+A+A-AA+A-A-AA+A+A-A+A+A-A-AA+A+A-A+A+A-A-AA+A+A-A-A+A-A-AA+A+A-A+A+A-A-AA+A+A-A+A+A-A-AA+A+A-A-A+A-A-AA+A+A-A-A+A-A-AA+A+A-AA+A-A-AA+A+A-A+A+A-A-AA+A+A-A+A+A-A-AA+A+A-A-A+A-A-AA+A+A-A-A+A-A-AA+A+A-A+A+A-A-AA+A+A-A-A+A-A-AA+A+A-A-A+A-A-AA+A+A-AA+A-A-AA+A+A-A+A+A-A-AA+A+A-A+A+A-A-AA+A+A-A-A+A-A-AA+A+A-A-A+A-A-AA+A+A-A+A+A-A-AA+A+A-A-A+A-A-AA+A+A-A-A+A-A-AA+A+A-AA+A-A-AA+A+A-A+A+A-A-AA+A+A-A+A+A-A-AA+A+A-A-A+A-A-AA+A+A-AA+A-A-AA+A+A-A+A+A-A-AA+A+A-A-A+A-A-AA+A+A-A-A+A-A-AA+A+A-AA+A-A-AA+A+A-A+A+A-A-AA+A+A-A+A+A-A-AA+A+A-A-A+A-A-AA+A+A-A+A+A-A-AA+A+A-A+A+A-A-AA+A+A-A-A+A-A-AA+A+A-A-A+A-A-AA+A+A-AA+A-A-AA+A+A-A+A+A-A-AA+A+A-A+A+A-A-AA+A+A-A-A+A-A-AA+A+A-A+A+A-A-AA+A+A-A+A+A-A-AA+A+A-A-A+A-A-AA+A+A-A-A+A-A-AA+A+A-AA+A-A-AA+A+A-A+A+A-A-AA+A+A-A+A+A-A-AA+A+A-A-A+A-A-AA+A+A-A-A+A-A-AA+A+A-A+A+A-A-AA+A+A-A-A+A-A-AA+A+A-A-A+A-A-AA+A+A-AA+A-A-AA+A+A-A+A+A-A-AA+A+A-A+A+A-A-AA+A+A-A-A+A-A-AA+A+A-A+A+A-A-AA+A+A-A+A+A-A-AA+A+A-A-A+A-A-AA+A+A-A-A+A-A-AA+A+A-AA+A-A-AA+A+A-A+A+A-A-AA+A+A-A+A+A-A-AA+A+A-A-A+A-A-AA+A+A-A+A+A-A-AA+A+A-A+A+A-A-AA+A+A-A-A+A-A-AA+A+A-A-A+A-A-AA+A+A-AA+A-A-AA+A+A-A+A+A-A-AA+A+A-A+A+A-A-AA+A+A-A-A+A-A-AA+A+A-A-A+A-A-AA+A+A-A+A+A-A-AA+A+A-A-A+A-A-AA+A+A-A-A+A-A-AA+A+A-AA+A-A-AA+A+A-A+A+A-A-AA+A+A-A+A+A-A-AA+A+A-A-A+A-A-AA+A+A-A-A+A-A-AA+A+A-A+A+A-A-AA+A+A-A-A+A-A-AA+A+A-A-A+A-A-AA+A+A-AA+A-A-AA+A+A-A+A+A-A-AA+A+A-A+A+A-A-AA+A+A-A-A+A-A-AA+A+A-AA+A-A-AA+A+A-A+A+A-A-AA+A+A-A-A+A-A-AA+A+A-A-A+A-A-AA+A+A-AA+A-A-AA+A+A-A+A+A-A-AA+A+A-A+A+A-A-AA+A+A-A-A+A-A-AA+A+A-A+A+A-A-AA+A+A-A+A+A-A-AA+A+A-A-A+A-A-AA+A+A-A-A+A-A-AA+A+A-AA+A-A-AA+A+A-A+A+A-A-AA+A+A-A+A+A-A-AA+A+A-A-A+A-A-AA+A+A-A+A+A-A-AA+A+A-A+A+A-A-AA+A+A-A-A+A-A-AA+A+A-A-A+A-A-AA+A+A-AA+A-A-AA+A+A-A+A+A-A-AA+A+A-A+A+A-A-AA+A+A-A-A+A-A-AA+A+A-A-A+A-A-AA+A+A-A+A+A-A-AA+A+A-A-A+A-A-AA+A+A-A-A+A-A-AA+A+A-AA+A-A-AA+A+A-A+A+A-A-AA+A+A-A+A+A-A-AA+A+A-A-A+A-A-AA+A+A-A+A+A-A-AA+A+A-A+A+A-A-AA+A+A-A-A+A-A-AA+A+A-A-A+A-A-AA+A+A-AA+A-A-AA+A+A-A+A+A-A-AA+A+A-A+A+A-A-AA+A+A-A-A+A-A-AA+A+A-A+A+A-A-AA+A+A-A+A+A-A-AA+A+A-A-A+A-A-AA+A+A-A-A+A-A-AA+A+A-AA+A-A-AA+A+A-A+A+A-A-AA+A+A-A+A+A-A-AA+A+A-A-A+A-A-AA+A+A-A-A+A-A-AA+A+A-A+A+A-A-AA+A+A-A-A+A-A-AA+A+A-A-A+A-A-AA+A+A-AA+A-A-AA+A+A-A+A+A-A-AA+A+A-A+A+A-A-AA+A+A-A-A+A-A-AA+A+A-A-A+A-A-AA+A+A-A+A+A-A-AA+A+A-A-A+A-A-AA+A+A-A-A+A-A-AA+A+A-AA+A-A-AA+A+A-A+A+A-A-AA+A+A-A+A+A-A-AA+A+A-A-A+A-A-AA+A+A-AA+A-A-AA+A+A-A+A+A-A-AA+A+A-A-A+A-A-AA+A+A-A-A+A-A-AA+A+A-AA+A-A-AA+A+A-A+A+A-A-AA+A+A-A+A+A-A-AA+A+A-A-A+A-A-AA+A+A-A+A+A-A-AA+A+A-A+A+A-A-AA+A+A-A-A+A-A-AA+A+A-A-A+A-A-AA+A+A-AA+A-A-AA+A+A-A+A+A-A-AA+A+A-A+A+A-A-AA+A+A-A-A+A-A-AA+A+A-A+A+A-A-AA+A+A-A+A+A-A-AA+A+A-A-A+A-A-AA+A+A-A-A+A-A-AA+A+A-AA+A-A-AA+A+A-A+A+A-A-AA+A+A-A+A+A-A-AA+A+A-A-A+A-A-AA+A+A-A-A+A-A-AA+A+A-A+A+A-A-AA+A+A-A-A+A-A-AA+A+A-A-A+A-A-AA+A+A-AA+A-A-AA+A+A-A+A+A-A-AA+A+A-A+A+A-A-AA+A+A-A-A+A-A-AA+A+A-A-A+A-A-AA+A+A-A+A+A-A-AA+A+A-A-A+A-A-AA+A+A-A-A+A-A-AA+A+A-AA+A-A-AA+A+A-A+A+A-A-AA+A+A-A+A+A-A-AA+A+A-A-A+A-A-AA+A+A-A+A+A-A-AA+A+A-A+A+A-A-AA+A+A-A-A+A-A-AA+A+A-A-A+A-A-AA+A+A-AA+A-A-AA+A+A-A+A+A-A-AA+A+A-A+A+A-A-AA+A+A-A-A+A-A-AA+A+A-A-A+A-A-AA+A+A-A+A+A-A-AA+A+A-A-A+A-A-AA+A+A-A-A+A-A-AA+A+A-AA+A-A-AA+A+A-A+A+A-A-AA+A+A-A+A+A-A-AA+A+A-A-A+A-A-AA+A+A-A-A+A-A-AA+A+A-A+A+A-A-AA+A+A-A-A+A-A-AA+A+A-A-A+A-A-AA+A+A-AA+A-A-AA+A+A-A+A+A-A-AA+A+A-A+A+A-A-AA+A+A-A-A+A-A-AA+A+A-AA+A-A-AA+A+A-A+A+A-A-AA+A+A-A-A+A-A-AA+A+A-A-A+A-A-AA+A+A-AA+A-A-AA+A+A-A+A+A-A-AA+A+A-A+A+A-A-AA+A+A-A-A+A-A-AA+A+A-A+A+A-A-AA+A+A-A+A+A-A-AA+A+A-A-A+A-A-AA+A+A-A-A+A-A-AA+A+A-AA+A-A-AA+A+A-A+A+A-A-AA+A+A-A+A+A-A-AA+A+A-A-A+A-A-AA+A+A-A+A+A-A-AA+A+A-A+A+A-A-AA+A+A-A-A+A-A-AA+A+A-A-A+A-A-AA+A+A-AA+A-A-AA+A+A-A+A+A-A-AA+A+A-A+A+A-A-AA+A+A-A-A+A-A-AA+A+A-A-A+A-A-AA+A+A-A+A+A-A-AA+A+A-A-A+A-A-AA+A+A-A-A+A-A-AA+A+A-AA+A-A-AA+A+A-A+A+A-A-AA+A+A-A+A+A-A-AA+A+A-A-A+A-A-AA+A+A-A+A+A-A-AA+A+A-A+A+A-A-AA+A+A-A-A+A-A-AA+A+A-A-A+A-A-AA+A+A-AA+A-A-AA+A+A-A+A+A-A-AA+A+A-A+A+A-A-AA+A+A-A-A+A-A-AA+A+A-A+A+A-A-AA+A+A-A+A+A-A-AA+A+A-A-A+A-A-AA+A+A-A-A+A-A-AA+A+A-AA+A-A-AA+A+A-A+A+A-A-AA+A+A-A+A+A-A-AA+A+A-A-A+A-A-AA+A+A-A-A+A-A-AA+A+A-A+A+A-A-AA+A+A-A-A+A-A-AA+A+A-A-A+A-A-AA+A+A-AA+A-A-AA+A+A-A+A+A-A-AA+A+A-A+A+A-A-AA+A+A-A-A+A-A-AA+A+A-A-A+A-A-AA+A+A-A+A+A-A-AA+A+A-A-A+A-A-AA+A+A-A-A+A-A-AA+A+A-AA+A-A-AA+A+A-A+A+A-A-AA+A+A-A+A+A-A-AA+A+A-A-A+A-A-AA+A+A-AA+A-A-AA+A+A-A+A+A-A-AA+A+A-A-A+A-A-AA+A+A-A-A+A-A-AA+A+A-AA+A-A-AA+A+A-A+A+A-A-AA+A+A-A+A+A-A-AA+A+A-A-A+A-A-AA+A+A-A+A+A-A-AA+A+A-A+A+A-A-AA+A+A-A-A+A-A-AA+A+A-A-A+A-A-AA+A+A-AA+A-A-AA+A+A-A+A+A-A-AA+A+A-A+A+A-A-AA+A+A-A-A+A-A-AA+A+A-A+A+A-A-AA+A+A-A+A+A-A-AA+A+A-A-A+A-A-AA+A+A-A-A+A-A-AA+A+A-AA+A-A-AA+A+A-A+A+A-A-AA+A+A-A+A+A-A-AA+A+A-A-A+A-A-AA+A+A-A-A+A-A-AA+A+A-A+A+A-A-AA+A+A-A-A+A-A-AA+A+A-A-A+A-A-AA+A+A-AA+A-A-AA+A+A-A+A+A-A-AA+A+A-A+A+A-A-AA+A+A-A-A+A-A-AA+A+A-A+A+A-A-AA+A+A-A+A+A-A-AA+A+A-A-A+A-A-AA+A+A-A-A+A-A-AA+A+A-AA+A-A-AA+A+A-A+A+A-A-AA+A+A-A+A+A-A-AA+A+A-A-A+A-A-AA+A+A-A+A+A-A-AA+A+A-A+A+A-A-AA+A+A-A-A+A-A-AA+A+A-A-A+A-A-AA+A+A-AA+A-A-AA+A+A-A+A+A-A-AA+A+A-A+A+A-A-AA+A+A-A-A+A-A-AA+A+A-A-A+A-A-AA+A+A-A+A+A-A-AA+A+A-A-A+A-A-AA+A+A-A-A+A-A-AA+A+A-AA+A-A-AA+A+A-A+A+A-A-AA+A+A-A+A+A-A-AA+A+A-A-A+A-A-AA+A+A-A-A+A-A-AA+A+A-A+A+A-A-AA+A+A-A-A+A-A-AA+A+A-A-A+A-A-AA+A+A-AA+A-A-AA+A+A-A+A+A-A-AA+A+A-A+A+A-A-AA+A+A-A-A+A-A-AA+A+A-AA+A-A-AA+A+A-A+A+A-A-AA+A+A-A-A+A-A-AA+A+A-A-A+A-A-AA+A+A-AA+A-A-AA+A+A-A+A+A-A-AA+A+A-A+A+A-A-AA+A+A-A-A+A-A-AA+A+A-A+A+A-A-AA+A+A-A+A+A-A-AA+A+A-A-A+A-A-AA+A+A-A-A+A-A-AA+A+A-AA+A-A-AA+A+A-A+A+A-A-AA+A+A-A+A+A-A-AA+A+A-A-A+A-A-AA+A+A-A+A+A-A-AA+A+A-A+A+A-A-AA+A+A-A-A+A-A-AA+A+A-A-A+A-A-AA+A+A-AA+A-A-AA+A+A-A+A+A-A-AA+A+A-A+A+A-A-AA+A+A-A-A+A-A-AA+A+A-A-A+A-A-AA+A+A-A+A+A-A-AA+A+A-A-A+A-A-AA+A+A-A-A+A-A-AA+A+A-AA+A-A-AA+A+A-A+A+A-A-AA+A+A-A+A+A-A-AA+A+A-A-A+A-A-AA+A+A-A-A+A-A-AA+A+A-A+A+A-A-AA+A+A-A-A+A-A-AA+A+A-A-A+A-A-AA+A+A-AA+A-A-AA+A+A-A+A+A-A-AA+A+A-A+A+A-A-AA+A+A-A-A+A-A-AA+A+A-A+A+A-A-AA+A+A-A+A+A-A-AA+A+A-A-A+A-A-AA+A+A-A-A+A-A-AA+A+A-AA+A-A-AA+A+A-A+A+A-A-AA+A+A-A+A+A-A-AA+A+A-A-A+A-A-AA+A+A-A-A+A-A-AA+A+A-A+A+A-A-AA+A+A-A-A+A-A-AA+A+A-A-A+A-A-AA+A+A-AA+A-A-AA+A+A-A+A+A-A-AA+A+A-A+A+A-A-AA+A+A-A-A+A-A-AA+A+A-A-A+A-A-AA+A+A-A+A+A-A-AA+A+A-A-A+A-A-AA+A+A-A-A+A-A-AA+A+A-AA+A-A-AA+A+A-A+A+A-A-AA+A+A-A+A+A-A-AA+A+A-A-A+A-A-AA+A+A-AA+A-A-AA+A+A-A+A+A-A-AA+A+A-A-A+A-A-AA+A+A-A-A+A-A-AA+A+A-AA+A-A-AA+A+A-A+A+A-A-AA+A+A-A+A+A-A-AA+A+A-A-A+A-A-AA+A+A-A+A+A-A-AA+A+A-A+A+A-A-AA+A+A-A-A+A-A-AA+A+A-A-A+A-A-AA+A+A-AA+A-A-AA+A+A-A+A+A-A-AA+A+A-A+A+A-A-AA+A+A-A-A+A-A-AA+A+A-A+A+A-A-AA+A+A-A+A+A-A-AA+A+A-A-A+A-A-AA+A+A-A-A+A-A-AA+A+A-AA+A-A-AA+A+A-A+A+A-A-AA+A+A-A+A+A-A-AA+A+A-A-A+A-A-AA+A+A-A-A+A-A-AA+A+A-A+A+A-A-AA+A+A-A-A+A-A-AA+A+A-A-A+A-A-AA+A+A-AA+A-A-AA+A+A-A+A+A-A-AA+A+A-A+A+A-A-AA+A+A-A-A+A-A-AA+A+A-A-A+A-A-AA+A+A-A+A+A-A-AA+A+A-A-A+A-A-AA+A+A-A-A+A-A-AA+A+A-AA+A-A-AA+A+A-A+A+A-A-AA+A+A-A+A+A-A-AA+A+A-A-A+A-A-AA+A+A-A+A+A-A-AA+A+A-A+A+A-A-AA+A+A-A-A+A-A-AA+A+A-A-A+A-A-AA+A+A-AA+A-A-AA+A+A-A+A+A-A-AA+A+A-A+A+A-A-AA+A+A-A-A+A-A-AA+A+A-A-A+A-A-AA+A+A-A+A+A-A-AA+A+A-A-A+A-A-AA+A+A-A-A+A-A-AA+A+A-AA+A-A-AA+A+A-A+A+A-A-AA+A+A-A+A+A-A-AA+A+A-A-A+A-A-AA+A+A-A-A+A-A-AA+A+A-A+A+A-A-AA+A+A-A-A+A-A-AA+A+A-A-A+A-A-AA+A+A-AA+A-A-AA+A+A-A+A+A-A-AA+A+A-A+A+A-A-AA+A+A-A-A+A-A-AA+A+A-AA+A-A-AA+A+A-A+A+A-A-AA+A+A-A-A+A-A-AA+A+A-A-A+A-A-AA+A+A-AA+A-A-AA+A+A-A+A+A-A-AA+A+A-A+A+A-A-AA+A+A-A-A+A-A-AA+A+A-A+A+A-A-AA+A+A-A+A+A-A-AA+A+A-A-A+A-A-AA+A+A-A-A+A-A-AA+A+A-AA+A-A-AA+A+A-A+A+A-A-AA+A+A-A+A+A-A-AA+A+A-A-A+A-A-AA+A+A-A+A+A-A-AA+A+A-A+A+A-A-AA+A+A-A-A+A-A-AA+A+A-A-A+A-A-AA+A+A-AA+A-A-AA+A+A-A+A+A-A-AA+A+A-A+A+A-A-AA+A+A-A-A+A-A-AA+A+A-A-A+A-A-AA+A+A-A+A+A-A-AA+A+A-A-A+A-A-AA+A+A-A-A+A-A-AA+A+A-AA+A-A-AA+A+A-A+A+A-A-AA+A+A-A+A+A-A-AA+A+A-A-A+A-A-AA+A+A-AA+A-A-AA+A+A-A+A+A-A-AA+A+A-A-A+A-A-AA+A+A-A-A+A-A-AA+A+A-AA+A-A-AA+A+A-A+A+A-A-AA+A+A-A+A+A-A-AA+A+A-A-A+A-A-AA+A+A-A+A+A-A-AA+A+A-A+A+A-A-AA+A+A-A-A+A-A-AA+A+A-A-A+A-A-AA+A+A-AA+A-A-AA+A+A-A+A+A-A-AA+A+A-A+A+A-A-AA+A+A-A-A+A-A-AA+A+A-A-A+A-A-AA+A+A-A+A+A-A-AA+A+A-A-A+A-A-AA+A+A-A-A+A-A-AA+A+A-AA+A-A-AA+A+A-A+A+A-A-AA+A+A-A+A+A-A-AA+A+A-A-A+A-A-AA+A+A-A-A+A-A-AA+A+A-A+A+A-A-AA+A+A-A-A+A-A-AA+A+A-A-A+A-A-AA+A+A-AA+A-A-AA+A+A-A+A+A-A-AA+A+A-A+A+A-A-AA+A+A-A-A+A-A-AA+A+A-AA+A-A-AA+A+A-A+A+A-A-AA+A+A-A-A+A-A-AA+A+A-A-A+A-A-AA+A+A-AA+A-A-AA+A+A-A+A+A-A-AA+A+A-A+A+A-A-AA+A+A-A-A+A-A-AA+A+A-A+A+A-A-AA+A+A-A+A+A-A-AA+A+A-A-A+A-A-AA+A+A-A-A+A-A-AA+A+A-AA+A-A-AA+A+A-A+A+A-A-AA+A+A-A+A+A-A-AA+A+A-A-A+A-A-AA+A+A-A+A+A-A-AA+A+A-A+A+A-A-AA+A+A-A-A+A-A-AA+A+A-A-A+A-A-AA+A+A-AA+A-A-AA+A+A-A+A+A-A-AA+A+A-A+A+A-A-AA+A+A-A-A+A-A-AA+A+A-A-A+A-A-AA+A+A-A+A+A-A-AA+A+A-A-A+A-A-AA+A+A-A-A+A-A-AA+A+A-AA+A-A-AA+A+A-A+A+A-A-AA+A+A-A+A+A-A-AA+A+A-A-A+A-A-AA+A+A-A+A+A-A-AA+A+A-A+A+A-A-AA+A+A-A-A+A-A-AA+A+A-A-A+A-A-AA+A+A-AA+A-A-AA+A+A-A+A+A-A-AA+A+A-A+A+A-A-AA+A+A-A-A+A-A-AA+A+A-A+A+A-A-AA+A+A-A+A+A-A-AA+A+A-A-A+A-A-AA+A+A-A-A+A-A-AA+A+A-AA+A-A-AA+A+A-A+A+A-A-AA+A+A-A+A+A-A-AA+A+A-A-A+A-A-AA+A+A-A-A+A-A-AA+A+A-A+A+A-A-AA+A+A-A-A+A-A-AA+A+A-A-A+A-A-AA+A+A-AA+A-A-AA+A+A-A+A+A-A-AA+A+A-A+A+A-A-AA+A+A-A-A+A-A-AA+A+A-A-A+A-A-AA+A+A-A+A+A-A-AA+A+A-A-A+A-A-AA+A+A-A-A+A-A-AA+A+A-AA+A-A-AA+A+A-A+A+A-A-AA+A+A-A+A+A-A-AA+A+A-A-A+A-A-AA+A+A-AA+A-A-AA+A+A-A+A+A-A-AA+A+A-A-A+A-A-AA+A+A-A-A+A-A-AA+A+A-AA+A-A-AA+A+A-A+A+A-A-AA+A+A-A+A+A-A-AA+A+A-A-A+A-A-AA+A+A-A+A+A-A-AA+A+A-A+A+A-A-AA+A+A-A-A+A-A-AA+A+A-A-A+A-A-AA+A+A-AA+A-A-AA+A+A-A+A+A-A-AA+A+A-A+A+A-A-AA+A+A-A-A+A-A-AA+A+A-A+A+A-A-AA+A+A-A+A+A-A-AA+A+A-A-A+A-A-AA+A+A-A-A+A-A-AA+A+A-AA+A-A-AA+A+A-A+A+A-A-AA+A+A-A+A+A-A-AA+A+A-A-A+A-A-AA+A+A-A-A+A-A-AA+A+A-A+A+A-A-AA+A+A-A-A+A-A-AA+A+A-A-A+A-A-AA+A+A-AA+A-A-AA+A+A-A+A+A-A-AA+A+A-A+A+A-A-AA+A+A-A-A+A-A-AA+A+A-A+A+A-A-AA+A+A-A+A+A-A-AA+A+A-A-A+A-A-AA+A+A-A-A+A-A-AA+A+A-AA+A-A-AA+A+A-A+A+A-A-AA+A+A-A+A+A-A-AA+A+A-A-A+A-A-AA+A+A-A+A+A-A-AA+A+A-A+A+A-A-AA+A+A-A-A+A-A-AA+A+A-A-A+A-A-AA+A+A-AA+A-A-AA+A+A-A+A+A-A-AA+A+A-A+A+A-A-AA+A+A-A-A+A-A-AA+A+A-A-A+A-A-AA+A+A-A+A+A-A-AA+A+A-A-A+A-A-AA+A+A-A-A+A-A-AA+A+A-AA+A-A-AA+A+A-A+A+A-A-AA+A+A-A+A+A-A-AA+A+A-A-A+A-A-AA+A+A-A-A+A-A-AA+A+A-A+A+A-A-AA+A+A-A-A+A-A-AA+A+A-A-A+A-A-AA+A+A-AA+A-A-AA+A+A-A+A+A-A-AA+A+A-A+A+A-A-AA+A+A-A-A+A-A-AA+A+A-AA+A-A-AA+A+A-A+A+A-A-AA+A+A-A-A+A-A-AA+A+A-A-A+A-A-AA+A+A-AA+A-A-AA+A+A-A+A+A-A-AA+A+A-A+A+A-A-AA+A+A-A-A+A-A-AA+A+A-A+A+A-A-AA+A+A-A+A+A-A-AA+A+A-A-A+A-A-AA+A+A-A-A+A-A-AA+A+A-AA+A-A-AA+A+A-A+A+A-A-AA+A+A-A+A+A-A-AA+A+A-A-A+A-A-AA+A+A-A+A+A-A-AA+A+A-A+A+A-A-AA+A+A-A-A+A-A-AA+A+A-A-A+A-A-AA+A+A-AA+A-A-AA+A+A-A+A+A-A-AA+A+A-A+A+A-A-AA+A+A-A-A+A-A-AA+A+A-A-A+A-A-AA+A+A-A+A+A-A-AA+A+A-A-A+A-A-AA+A+A-A-A+A-A-AA+A+A-AA+A-A-AA+A+A-A+A+A-A-AA+A+A-A+A+A-A-AA+A+A-A-A+A-A-AA+A+A-A-A+A-A-AA+A+A-A+A+A-A-AA+A+A-A-A+A-A-AA+A+A-A-A+A-A-AA+A+A-AA+A-A-AA+A+A-A+A+A-A-AA+A+A-A+A+A-A-AA+A+A-A-A+A-A-AA+A+A-A+A+A-A-AA+A+A-A+A+A-A-AA+A+A-A-A+A-A-AA+A+A-A-A+A-A-AA+A+A-AA+A-A-AA+A+A-A+A+A-A-AA+A+A-A+A+A-A-AA+A+A-A-A+A-A-AA+A+A-A-A+A-A-AA+A+A-A+A+A-A-AA+A+A-A-A+A-A-AA+A+A-A-A+A-A-AA+A+A-AA+A-A-AA+A+A-A+A+A-A-AA+A+A-A+A+A-A-AA+A+A-A-A+A-A-AA+A+A-A-A+A-A-AA+A+A-A+A+A-A-AA+A+A-A-A+A-A-AA+A+A-A-A+A-A-AA+A+A-AA+A-A-AA+A+A-A+A+A-A-AA+A+A-A+A+A-A-AA+A+A-A-A+A-A-AA+A+A-AA+A-A-AA+A+A-A+A+A-A-AA+A+A-A-A+A-A-AA+A+A-A-A+A-A-AA+A+A-AA+A-A-AA+A+A-A+A+A-A-AA+A+A-A+A+A-A-AA+A+A-A-A+A-A-AA+A+A-A+A+A-A-AA+A+A-A+A+A-A-AA+A+A-A-A+A-A-AA+A+A-A-A+A-A-AA+A+A-AA+A-A-AA+A+A-A+A+A-A-AA+A+A-A+A+A-A-AA+A+A-A-A+A-A-AA+A+A-A+A+A-A-AA+A+A-A+A+A-A-AA+A+A-A-A+A-A-AA+A+A-A-A+A-A-AA+A+A-AA+A-A-AA+A+A-A+A+A-A-AA+A+A-A+A+A-A-AA+A+A-A-A+A-A-AA+A+A-A-A+A-A-AA+A+A-A+A+A-A-AA+A+A-A-A+A-A-AA+A+A-A-A+A-A-AA+A+A-AA+A-A-AA+A+A-A+A+A-A-AA+A+A-A+A+A-A-AA+A+A-A-A+A-A-AA+A+A-A+A+A-A-AA+A+A-A+A+A-A-AA+A+A-A-A+A-A-AA+A+A-A-A+A-A-AA+A+A-AA+A-A-AA+A+A-A+A+A-A-AA+A+A-A+A+A-A-AA+A+A-A-A+A-A-AA+A+A-A+A+A-A-AA+A+A-A+A+A-A-AA+A+A-A-A+A-A-AA+A+A-A-A+A-A-AA+A+A-AA+A-A-AA+A+A-A+A+A-A-AA+A+A-A+A+A-A-AA+A+A-A-A+A-A-AA+A+A-A-A+A-A-AA+A+A-A+A+A-A-AA+A+A-A-A+A-A-AA+A+A-A-A+A-A-AA+A+A-AA+A-A-AA+A+A-A+A+A-A-AA+A+A-A+A+A-A-AA+A+A-A-A+A-A-AA+A+A-A-A+A-A-AA+A+A-A+A+A-A-AA+A+A-A-A+A-A-AA+A+A-A-A+A-A-AA+A+A-AA+A-A-AA+A+A-A+A+A-A-AA+A+A-A+A+A-A-AA+A+A-A-A+A-A-AA+A+A-AA+A-A-AA+A+A-A+A+A-A-AA+A+A-A-A+A-A-AA+A+A-A-A+A-A-AA+A+A-AA+A-A-AA+A+A-A+A+A-A-AA+A+A-A+A+A-A-AA+A+A-A-A+A-A-AA+A+A-A+A+A-A-AA+A+A-A+A+A-A-AA+A+A-A-A+A-A-AA+A+A-A-A+A-A-AA+A+A-AA+A-A-AA+A+A-A+A+A-A-AA+A+A-A+A+A-A-AA+A+A-A-A+A-A-AA+A+A-A+A+A-A-AA+A+A-A+A+A-A-AA+A+A-A-A+A-A-AA+A+A-A-A+A-A-AA+A+A-AA+A-A-AA+A+A-A+A+A-A-AA+A+A-A+A+A-A-AA+A+A-A-A+A-A-AA+A+A-A-A+A-A-AA+A+A-A+A+A-A-AA+A+A-A-A+A-A-AA+A+A-A-A+A-A-AA+A+A-AA+A-A-AA+A+A-A+A+A-A-AA+A+A-A+A+A-A-AA+A+A-A-A+A-A-AA+A+A-A+A+A-A-AA+A+A-A+A+A-A-AA+A+A-A-A+A-A-AA+A+A-A-A+A-A-AA+A+A-AA+A-A-AA+A+A-A+A+A-A-AA+A+A-A+A+A-A-AA+A+A-A-A+A-A-AA+A+A-A+A+A-A-AA+A+A-A+A+A-A-AA+A+A-A-A+A-A-AA+A+A-A-A+A-A-AA+A+A-AA+A-A-AA+A+A-A+A+A-A-AA+A+A-A+A+A-A-AA+A+A-A-A+A-A-AA+A+A-A-A+A-A-AA+A+A-A+A+A-A-AA+A+A-A-A+A-A-AA+A+A-A-A+A-A-AA+A+A-AA+A-A-AA+A+A-A+A+A-A-AA+A+A-A+A+A-A-AA+A+A-A-A+A-A-AA+A+A-A-A+A-A-AA+A+A-A+A+A-A-AA+A+A-A-A+A-A-AA+A+A-A-A+A-A-AA+A+A-AA+A-A-AA+A+A-A+A+A-A-AA+A+A-A+A+A-A-AA+A+A-A-A+A-A-AA+A+A-AA+A-A-AA+A+A-A+A+A-A-AA+A+A-A-A+A-A-AA+A+A-A-A+A-A-AA+A+A-AA+A-A-AA+A+A-A+A+A-A-AA+A+A-A+A+A-A-AA+A+A-A-A+A-A-AA+A+A-A+A+A-A-AA+A+A-A+A+A-A-AA+A+A-A-A+A-A-AA+A+A-A-A+A-A-AA+A+A-AA+A-A-AA+A+A-A+A+A-A-AA+A+A-A+A+A-A-AA+A+A-A-A+A-A-AA+A+A-A+A+A-A-AA+A+A-A+A+A-A-AA+A+A-A-A+A-A-AA+A+A-A-A+A-A-AA+A+A-AA+A-A-AA+A+A-A+A+A-A-AA+A+A-A+A+A-A-AA+A+A-A-A+A-A-AA+A+A-A-A+A-A-AA+A+A-A+A+A-A-AA+A+A-A-A+A-A-AA+A+A-A-A+A-A-AA+A+A-AA+A-A-AA+A+A-A+A+A-A-AA+A+A-A+A+A-A-AA+A+A-A-A+A-A-AA+A+A-A-A+A-A-AA+A+A-A+A+A-A-AA+A+A-A-A+A-A-AA+A+A-A-A+A-A-AA+A+A-AA+A-A-AA+A+A-A+A+A-A-AA+A+A-A+A+A-A-AA+A+A-A-A+A-A-AA+A+A-A+A+A-A-AA+A+A-A+A+A-A-AA+A+A-A-A+A-A-AA+A+A-A-A+A-A-AA+A+A-AA+A-A-AA+A+A-A+A+A-A-AA+A+A-A+A+A-A-AA+A+A-A-A+A-A-AA+A+A-A-A+A-A-AA+A+A-A+A+A-A-AA+A+A-A-A+A-A-AA+A+A-A-A+A-A-AA+A+A-AA+A-A-AA+A+A-A+A+A-A-AA+A+A-A+A+A-A-AA+A+A-A-A+A-A-AA+A+A-A-A+A-A-AA+A+A-A+A+A-A-AA+A+A-A-A+A-A-AA+A+A-A-A+A-A-AA+A+A-AA+A-A-AA+A+A-A+A+A-A-AA+A+A-A+A+A-A-AA+A+A-A-A+A-A-AA+A+A-AA+A-A-AA+A+A-A+A+A-A-AA+A+A-A-A+A-A-AA+A+A-A-A+A-A-AA+A+A-AA+A-A-AA+A+A-A+A+A-A-AA+A+A-A+A+A-A-AA+A+A-A-A+A-A-AA+A+A-A+A+A-A-AA+A+A-A+A+A-A-AA+A+A-A-A+A-A-AA+A+A-A-A+A-A-AA+A+A-AA+A-A-AA+A+A-A+A+A-A-AA+A+A-A+A+A-A-AA+A+A-A-A+A-A-AA+A+A-A+A+A-A-AA+A+A-A+A+A-A-AA+A+A-A-A+A-A-AA+A+A-A-A+A-A-AA+A+A-AA+A-A-AA+A+A-A+A+A-A-AA+A+A-A+A+A-A-AA+A+A-A-A+A-A-AA+A+A-A-A+A-A-AA+A+A-A+A+A-A-AA+A+A-A-A+A-A-AA+A+A-A-A+A-A-AA+A+A-AA+A-A-AA+A+A-A+A+A-A-AA+A+A-A+A+A-A-AA+A+A-A-A+A-A-AA+A+A-A-A+A-A-AA+A+A-A+A+A-A-AA+A+A-A-A+A-A-AA+A+A-A-A+A-A-AA+A+A-AA+A-A-AA+A+A-A+A+A-A-AA+A+A-A+A+A-A-AA+A+A-A-A+A-A-AA+A+A-A+A+A-A-AA+A+A-A+A+A-A-AA+A+A-A-A+A-A-AA+A+A-A-A+A-A-AA+A+A-AA+A-A-AA+A+A-A+A+A-A-AA+A+A-A+A+A-A-AA+A+A-A-A+A-A-AA+A+A-A-A+A-A-AA+A+A-A+A+A-A-AA+A+A-A-A+A-A-AA+A+A-A-A+A-A-AA+A+A-AA+A-A-AA+A+A-A+A+A-A-AA+A+A-A+A+A-A-AA+A+A-A-A+A-A-AA+A+A-A-A+A-A-AA+A+A-A+A+A-A-AA+A+A-A-A+A-A-AA+A+A-A-A+A-A-AA+A+A-AA+A-A-AA+A+A-A+A+A-A-AA+A+A-A+A+A-A-AA+A+A-A-A+A-A-AA+A+A-AA+A-A-AA+A+A-A+A+A-A-AA+A+A-A-A+A-A-AA+A+A-A-A+A-A-AA+A+A-AA+A-A-AA+A+A-A+A+A-A-AA+A+A-A+A+A-A-AA+A+A-A-A+A-A-AA+A+A-A+A+A-A-AA+A+A-A+A+A-A-AA+A+A-A-A+A-A-AA+A+A-A-A+A-A-AA+A+A-AA+A-A-AA+A+A-A+A+A-A-AA+A+A-A+A+A-A-AA+A+A-A-A+A-A-AA+A+A-A+A+A-A-AA+A+A-A+A+A-A-AA+A+A-A-A+A-A-AA+A+A-A-A+A-A-AA+A+A-AA+A-A-AA+A+A-A+A+A-A-AA+A+A-A+A+A-A-AA+A+A-A-A+A-A-AA+A+A-A-A+A-A-AA+A+A-A+A+A-A-AA+A+A-A-A+A-A-AA+A+A-A-A+A-A-AA+A+A-AA+A-A-AA+A+A-A+A+A-A-AA+A+A-A+A+A-A-AA+A+A-A-A+A-A-AA+A+A-AA+A-A-AA+A+A-A+A+A-A-AA+A+A-A-A+A-A-AA+A+A-A-A+A-A-AA+A+A-AA+A-A-AA+A+A-A+A+A-A-AA+A+A-A+A+A-A-AA+A+A-A-A+A-A-AA+A+A-A+A+A-A-AA+A+A-A+A+A-A-AA+A+A-A-A+A-A-AA+A+A-A-A+A-A-AA+A+A-AA+A-A-AA+A+A-A+A+A-A-AA+A+A-A+A+A-A-AA+A+A-A-A+A-A-AA+A+A-A-A+A-A-AA+A+A-A+A+A-A-AA+A+A-A-A+A-A-AA+A+A-A-A+A-A-AA+A+A-AA+A-A-AA+A+A-A+A+A-A-AA+A+A-A+A+A-A-AA+A+A-A-A+A-A-AA+A+A-A-A+A-A-AA+A+A-A+A+A-A-AA+A+A-A-A+A-A-AA+A+A-A-A+A-A-AA+A+A-AA+A-A-AA+A+A-A+A+A-A-AA+A+A-A+A+A-A-AA+A+A-A-A+A-A-AA+A+A-AA+A-A-AA+A+A-A+A+A-A-AA+A+A-A-A+A-A-AA+A+A-A-A+A-A-AA+A+A-AA+A-A-AA+A+A-A+A+A-A-AA+A+A-A+A+A-A-AA+A+A-A-A+A-A-AA+A+A-A+A+A-A-AA+A+A-A+A+A-A-AA+A+A-A-A+A-A-AA+A+A-A-A+A-A-AA+A+A-AA+A-A-AA+A+A-A+A+A-A-AA+A+A-A+A+A-A-AA+A+A-A-A+A-A-AA+A+A-A+A+A-A-AA+A+A-A+A+A-A-AA+A+A-A-A+A-A-AA+A+A-A-A+A-A-AA+A+A-AA+A-A-AA+A+A-A+A+A-A-AA+A+A-A+A+A-A-AA+A+A-A-A+A-A-AA+A+A-A-A+A-A-AA+A+A-A+A+A-A-AA+A+A-A-A+A-A-AA+A+A-A-A+A-A-AA+A+A-AA+A-A-AA+A+A-A+A+A-A-AA+A+A-A+A+A-A-AA+A+A-A-A+A-A-AA+A+A-A+A+A-A-AA+A+A-A+A+A-A-AA+A+A-A-A+A-A-AA+A+A-A-A+A-A-AA+A+A-AA+A-A-AA+A+A-A+A+A-A-AA+A+A-A+A+A-A-AA+A+A-A-A+A-A-AA+A+A-A+A+A-A-AA+A+A-A+A+A-A-AA+A+A-A-A+A-A-AA+A+A-A-A+A-A-AA+A+A-AA+A-A-AA+A+A-A+A+A-A-AA+A+A-A+A+A-A-AA+A+A-A-A+A-A-AA+A+A-A-A+A-A-AA+A+A-A+A+A-A-AA+A+A-A-A+A-A-AA+A+A-A-A+A-A-AA+A+A-AA+A-A-AA+A+A-A+A+A-A-AA+A+A-A+A+A-A-AA+A+A-A-A+A-A-AA+A+A-A-A+A-A-AA+A+A-A+A+A-A-AA+A+A-A-A+A-A-AA+A+A-A-A+A-A-AA+A+A-AA+A-A-AA+A+A-A+A+A-A-AA+A+A-A+A+A-A-AA+A+A-A-A+A-A-AA+A+A-AA+A-A-AA+A+A-A+A+A-A-AA+A+A-A-A+A-A-AA+A+A-A-A+A-A-AA+A+A-AA+A-A-AA+A+A-A+A+A-A-AA+A+A-A+A+A-A-AA+A+A-A-A+A-A-AA+A+A-A+A+A-A-AA+A+A-A+A+A-A-AA+A+A-A-A+A-A-AA+A+A-A-A+A-A-AA+A+A-AA+A-A-AA+A+A-A+A+A-A-AA+A+A-A+A+A-A-AA+A+A-A-A+A-A-AA+A+A-A+A+A-A-AA+A+A-A+A+A-A-AA+A+A-A-A+A-A-AA+A+A-A-A+A-A-AA+A+A-AA+A-A-AA+A+A-A+A+A-A-AA+A+A-A+A+A-A-AA+A+A-A-A+A-A-AA+A+A-A-A+A-A-AA+A+A-A+A+A-A-AA+A+A-A-A+A-A-AA+A+A-A-A+A-A-AA+A+A-AA+A-A-AA+A+A-A+A+A-A-AA+A+A-A+A+A-A-AA+A+A-A-A+A-A-AA+A+A-A+A+A-A-AA+A+A-A+A+A-A-AA+A+A-A-A+A-A-AA+A+A-A-A+A-A-AA+A+A-AA+A-A-AA+A+A-A+A+A-A-AA+A+A-A+A+A-A-AA+A+A-A-A+A-A-AA+A+A-A+A+A-A-AA+A+A-A+A+A-A-AA+A+A-A-A+A-A-AA+A+A-A-A+A-A-AA+A+A-AA+A-A-AA+A+A-A+A+A-A-AA+A+A-A+A+A-A-AA+A+A-A-A+A-A-AA+A+A-A-A+A-A-AA+A+A-A+A+A-A-AA+A+A-A-A+A-A-AA+A+A-A-A+A-A-AA+A+A-AA+A-A-AA+A+A-A+A+A-A-AA+A+A-A+A+A-A-AA+A+A-A-A+A-A-AA+A+A-A-A+A-A-AA+A+A-A+A+A-A-AA+A+A-A-A+A-A-AA+A+A-A-A+A-A-AA+A+A-AA+A-A-AA+A+A-A+A+A-A-AA+A+A-A+A+A-A-AA+A+A-A-A+A-A-AA+A+A-AA+A-A-AA+A+A-A+A+A-A-AA+A+A-A-A+A-A-AA+A+A-A-A+A-A-AA+A+A-AA+A-A-AA+A+A-A+A+A-A-AA+A+A-A+A+A-A-AA+A+A-A-A+A-A-AA+A+A-A+A+A-A-AA+A+A-A+A+A-A-AA+A+A-A-A+A-A-AA+A+A-A-A+A-A-AA+A+A-AA+A-A-AA+A+A-A+A+A-A-AA+A+A-A+A+A-A-AA+A+A-A-A+A-A-AA+A+A-A+A+A-A-AA+A+A-A+A+A-A-AA+A+A-A-A+A-A-AA+A+A-A-A+A-A-AA+A+A-AA+A-A-AA+A+A-A+A+A-A-AA+A+A-A+A+A-A-AA+A+A-A-A+A-A-AA+A+A-A-A+A-A-AA+A+A-A+A+A-A-AA+A+A-A-A+A-A-AA+A+A-A-A+A-A-AA+A+A-AA+A-A-AA+A+A-A+A+A-A-AA+A+A-A+A+A-A-AA+A+A-A-A+A-A-AA+A+A-A-A+A-A-AA+A+A-A+A+A-A-AA+A+A-A-A+A-A-AA+A+A-A-A+A-A-AA+A+A-AA+A-A-AA+A+A-A+A+A-A-AA+A+A-A+A+A-A-AA+A+A-A-A+A-A-AA+A+A-A+A+A-A-AA+A+A-A+A+A-A-AA+A+A-A-A+A-A-AA+A+A-A-A+A-A-AA+A+A-AA+A-A-AA+A+A-A+A+A-A-AA+A+A-A+A+A-A-AA+A+A-A-A+A-A-AA+A+A-A-A+A-A-AA+A+A-A+A+A-A-AA+A+A-A-A+A-A-AA+A+A-A-A+A-A-AA+A+A-AA+A-A-AA+A+A-A+A+A-A-AA+A+A-A+A+A-A-AA+A+A-A-A+A-A-AA+A+A-A-A+A-A-AA+A+A-A+A+A-A-AA+A+A-A-A+A-A-AA+A+A-A-A+A-A-AA+A+A-AA+A-A-AA+A+A-A+A+A-A-AA+A+A-A+A+A-A-AA+A+A-A-A+A-A-AA+A+A-AA+A-A-AA+A+A-A+A+A-A-AA+A+A-A-A+A-A-AA+A+A-A-A+A-A-AA+A+A-AA+A-A-AA+A+A-A+A+A-A-AA+A+A-A+A+A-A-AA+A+A-A-A+A-A-AA+A+A-A+A+A-A-AA+A+A-A+A+A-A-AA+A+A-A-A+A-A-AA+A+A-A-A+A-A-AA+A+A-AA+A-A-AA+A+A-A+A+A-A-AA+A+A-A+A+A-A-AA+A+A-A-A+A-A-AA+A+A-A+A+A-A-AA+A+A-A+A+A-A-AA+A+A-A-A+A-A-AA+A+A-A-A+A-A-AA+A+A-AA+A-A-AA+A+A-A+A+A-A-AA+A+A-A+A+A-A-AA+A+A-A-A+A-A-AA+A+A-A-A+A-A-AA+A+A-A+A+A-A-AA+A+A-A-A+A-A-AA+A+A-A-A+A-A-AA+A+A-AA+A-A-AA+A+A-A+A+A-A-AA+A+A-A+A+A-A-AA+A+A-A-A+A-A-AA+A+A-A
	String length: 	30427
	Derivation Kernel/Function Runtimes (Milliseconds):
		1.  Successor counting: 			7.59434700012207
		2.  Scan/prefix-sum of counts: 		0.19240379333496094
		3.  Rewriting: 						38.06662559509277


Interpretation Runtimes (Milliseconds):
		1.  Setting local matrices: 		734.0812683105469

Total Runtimes (Milliseconds):
	Derivation: 		270.8923816680908
	Interpretation: 	2263.8168334960938