L-System Generator Logfile
Created on 2017-12-06 22:40:27.696313
Author: Jessica Baron

L-System Attributes:
	Fractal Name: 				KochIsland
	Derivation Depth: 			5
	Line segment length: 		0.1
	Rotation angle (radians): 	1.570795
	Using OpenCL kernels? 		False
	Axiom String: 				A+A+A+A

Runtimes:
	Depth: 			0
	String: 		A+A+A+A
	String length: 	7
	Derivation Kernel/Function Runtimes (Milliseconds):
		1.  Successor counting: 			0.01621246337890625
		2.  Scan/prefix-sum of counts: 		0.07700920104980469
		3.  Rewriting: 						0.0209808349609375


	Depth: 			1
	String: 		A+A-A-AA+A+A-A+A+A-A-AA+A+A-A+A+A-A-AA+A+A-A+A+A-A-AA+A+A-A
	String length: 	59
	Derivation Kernel/Function Runtimes (Milliseconds):
		1.  Successor counting: 			0.025033950805664062
		2.  Scan/prefix-sum of counts: 		0.022172927856445312
		3.  Rewriting: 						0.1049041748046875


	Depth: 			2
	String: 		A+A-A-AA+A+A-A+A+A-A-AA+A+A-A-A+A-A-AA+A+A-A-A+A-A-AA+A+A-AA+A-A-AA+A+A-A+A+A-A-AA+A+A-A+A+A-A-AA+A+A-A-A+A-A-AA+A+A-A+A+A-A-AA+A+A-A+A+A-A-AA+A+A-A-A+A-A-AA+A+A-A-A+A-A-AA+A+A-AA+A-A-AA+A+A-A+A+A-A-AA+A+A-A+A+A-A-AA+A+A-A-A+A-A-AA+A+A-A+A+A-A-AA+A+A-A+A+A-A-AA+A+A-A-A+A-A-AA+A+A-A-A+A-A-AA+A+A-AA+A-A-AA+A+A-A+A+A-A-AA+A+A-A+A+A-A-AA+A+A-A-A+A-A-AA+A+A-A+A+A-A-AA+A+A-A+A+A-A-AA+A+A-A-A+A-A-AA+A+A-A-A+A-A-AA+A+A-AA+A-A-AA+A+A-A+A+A-A-AA+A+A-A+A+A-A-AA+A+A-A-A+A-A-AA+A+A-A
	String length: 	475
	Derivation Kernel/Function Runtimes (Milliseconds):
		1.  Successor counting: 			0.13208389282226562
		2.  Scan/prefix-sum of counts: 		0.025033950805664062
		3.  Rewriting: 						0.7948875427246094


	Depth: 			3
	String: 		A+A-A-AA+A+A-A+A+A-A-AA+A+A-A-A+A-A-AA+A+A-A-A+A-A-AA+A+A-AA+A-A-AA+A+A-A+A+A-A-AA+A+A-A+A+A-A-AA+A+A-A-A+A-A-AA+A+A-A+A+A-A-AA+A+A-A+A+A-A-AA+A+A-A-A+A-A-AA+A+A-A-A+A-A-AA+A+A-AA+A-A-AA+A+A-A+A+A-A-AA+A+A-A+A+A-A-AA+A+A-A-A+A-A-AA+A+A-A-A+A-A-AA+A+A-A+A+A-A-AA+A+A-A-A+A-A-AA+A+A-A-A+A-A-AA+A+A-AA+A-A-AA+A+A-A+A+A-A-AA+A+A-A+A+A-A-AA+A+A-A-A+A-A-AA+A+A-A-A+A-A-AA+A+A-A+A+A-A-AA+A+A-A-A+A-A-AA+A+A-A-A+A-A-AA+A+A-AA+A-A-AA+A+A-A+A+A-A-AA+A+A-A+A+A-A-AA+A+A-A-A+A-A-AA+A+A-AA+A-A-AA+A+A-A+A+A-A-AA+A+A-A-A+A-A-AA+A+A-A-A+A-A-AA+A+A-AA+A-A-AA+A+A-A+A+A-A-AA+A+A-A+A+A-A-AA+A+A-A-A+A-A-AA+A+A-A+A+A-A-AA+A+A-A+A+A-A-AA+A+A-A-A+A-A-AA+A+A-A-A+A-A-AA+A+A-AA+A-A-AA+A+A-A+A+A-A-AA+A+A-A+A+A-A-AA+A+A-A-A+A-A-AA+A+A-A+A+A-A-AA+A+A-A+A+A-A-AA+A+A-A-A+A-A-AA+A+A-A-A+A-A-AA+A+A-AA+A-A-AA+A+A-A+A+A-A-AA+A+A-A+A+A-A-AA+A+A-A-A+A-A-AA+A+A-A-A+A-A-AA+A+A-A+A+A-A-AA+A+A-A-A+A-A-AA+A+A-A-A+A-A-AA+A+A-AA+A-A-AA+A+A-A+A+A-A-AA+A+A-A+A+A-A-AA+A+A-A-A+A-A-AA+A+A-A+A+A-A-AA+A+A-A+A+A-A-AA+A+A-A-A+A-A-AA+A+A-A-A+A-A-AA+A+A-AA+A-A-AA+A+A-A+A+A-A-AA+A+A-A+A+A-A-AA+A+A-A-A+A-A-AA+A+A-A+A+A-A-AA+A+A-A+A+A-A-AA+A+A-A-A+A-A-AA+A+A-A-A+A-A-AA+A+A-AA+A-A-AA+A+A-A+A+A-A-AA+A+A-A+A+A-A-AA+A+A-A-A+A-A-AA+A+A-A-A+A-A-AA+A+A-A+A+A-A-AA+A+A-A-A+A-A-AA+A+A-A-A+A-A-AA+A+A-AA+A-A-AA+A+A-A+A+A-A-AA+A+A-A+A+A-A-AA+A+A-A-A+A-A-AA+A+A-A-A+A-A-AA+A+A-A+A+A-A-AA+A+A-A-A+A-A-AA+A+A-A-A+A-A-AA+A+A-AA+A-A-AA+A+A-A+A+A-A-AA+A+A-A+A+A-A-AA+A+A-A-A+A-A-AA+A+A-AA+A-A-AA+A+A-A+A+A-A-AA+A+A-A-A+A-A-AA+A+A-A-A+A-A-AA+A+A-AA+A-A-AA+A+A-A+A+A-A-AA+A+A-A+A+A-A-AA+A+A-A-A+A-A-AA+A+A-A+A+A-A-AA+A+A-A+A+A-A-AA+A+A-A-A+A-A-AA+A+A-A-A+A-A-AA+A+A-AA+A-A-AA+A+A-A+A+A-A-AA+A+A-A+A+A-A-AA+A+A-A-A+A-A-AA+A+A-A+A+A-A-AA+A+A-A+A+A-A-AA+A+A-A-A+A-A-AA+A+A-A-A+A-A-AA+A+A-AA+A-A-AA+A+A-A+A+A-A-AA+A+A-A+A+A-A-AA+A+A-A-A+A-A-AA+A+A-A-A+A-A-AA+A+A-A+A+A-A-AA+A+A-A-A+A-A-AA+A+A-A-A+A-A-AA+A+A-AA+A-A-AA+A+A-A+A+A-A-AA+A+A-A+A+A-A-AA+A+A-A-A+A-A-AA+A+A-A+A+A-A-AA+A+A-A+A+A-A-AA+A+A-A-A+A-A-AA+A+A-A-A+A-A-AA+A+A-AA+A-A-AA+A+A-A+A+A-A-AA+A+A-A+A+A-A-AA+A+A-A-A+A-A-AA+A+A-A+A+A-A-AA+A+A-A+A+A-A-AA+A+A-A-A+A-A-AA+A+A-A-A+A-A-AA+A+A-AA+A-A-AA+A+A-A+A+A-A-AA+A+A-A+A+A-A-AA+A+A-A-A+A-A-AA+A+A-A-A+A-A-AA+A+A-A+A+A-A-AA+A+A-A-A+A-A-AA+A+A-A-A+A-A-AA+A+A-AA+A-A-AA+A+A-A+A+A-A-AA+A+A-A+A+A-A-AA+A+A-A-A+A-A-AA+A+A-A-A+A-A-AA+A+A-A+A+A-A-AA+A+A-A-A+A-A-AA+A+A-A-A+A-A-AA+A+A-AA+A-A-AA+A+A-A+A+A-A-AA+A+A-A+A+A-A-AA+A+A-A-A+A-A-AA+A+A-AA+A-A-AA+A+A-A+A+A-A-AA+A+A-A-A+A-A-AA+A+A-A-A+A-A-AA+A+A-AA+A-A-AA+A+A-A+A+A-A-AA+A+A-A+A+A-A-AA+A+A-A-A+A-A-AA+A+A-A+A+A-A-AA+A+A-A+A+A-A-AA+A+A-A-A+A-A-AA+A+A-A-A+A-A-AA+A+A-AA+A-A-AA+A+A-A+A+A-A-AA+A+A-A+A+A-A-AA+A+A-A-A+A-A-AA+A+A-A+A+A-A-AA+A+A-A+A+A-A-AA+A+A-A-A+A-A-AA+A+A-A-A+A-A-AA+A+A-AA+A-A-AA+A+A-A+A+A-A-AA+A+A-A+A+A-A-AA+A+A-A-A+A-A-AA+A+A-A-A+A-A-AA+A+A-A+A+A-A-AA+A+A-A-A+A-A-AA+A+A-A-A+A-A-AA+A+A-AA+A-A-AA+A+A-A+A+A-A-AA+A+A-A+A+A-A-AA+A+A-A-A+A-A-AA+A+A-A+A+A-A-AA+A+A-A+A+A-A-AA+A+A-A-A+A-A-AA+A+A-A-A+A-A-AA+A+A-AA+A-A-AA+A+A-A+A+A-A-AA+A+A-A+A+A-A-AA+A+A-A-A+A-A-AA+A+A-A+A+A-A-AA+A+A-A+A+A-A-AA+A+A-A-A+A-A-AA+A+A-A-A+A-A-AA+A+A-AA+A-A-AA+A+A-A+A+A-A-AA+A+A-A+A+A-A-AA+A+A-A-A+A-A-AA+A+A-A-A+A-A-AA+A+A-A+A+A-A-AA+A+A-A-A+A-A-AA+A+A-A-A+A-A-AA+A+A-AA+A-A-AA+A+A-A+A+A-A-AA+A+A-A+A+A-A-AA+A+A-A-A+A-A-AA+A+A-A-A+A-A-AA+A+A-A+A+A-A-AA+A+A-A-A+A-A-AA+A+A-A-A+A-A-AA+A+A-AA+A-A-AA+A+A-A+A+A-A-AA+A+A-A+A+A-A-AA+A+A-A-A+A-A-AA+A+A-AA+A-A-AA+A+A-A+A+A-A-AA+A+A-A-A+A-A-AA+A+A-A-A+A-A-AA+A+A-AA+A-A-AA+A+A-A+A+A-A-AA+A+A-A+A+A-A-AA+A+A-A-A+A-A-AA+A+A-A+A+A-A-AA+A+A-A+A+A-A-AA+A+A-A-A+A-A-AA+A+A-A-A+A-A-AA+A+A-AA+A-A-AA+A+A-A+A+A-A-AA+A+A-A+A+A-A-AA+A+A-A-A+A-A-AA+A+A-A+A+A-A-AA+A+A-A+A+A-A-AA+A+A-A-A+A-A-AA+A+A-A-A+A-A-AA+A+A-AA+A-A-AA+A+A-A+A+A-A-AA+A+A-A+A+A-A-AA+A+A-A-A+A-A-AA+A+A-A-A+A-A-AA+A+A-A+A+A-A-AA+A+A-A-A+A-A-AA+A+A-A-A+A-A-AA+A+A-AA+A-A-AA+A+A-A+A+A-A-AA+A+A-A+A+A-A-AA+A+A-A-A+A-A-AA+A+A-A
	String length: 	3803
	Derivation Kernel/Function Runtimes (Milliseconds):
		1.  Successor counting: 			0.9758472442626953
		2.  Scan/prefix-sum of counts: 		0.04696846008300781
		3.  Rewriting: 						7.884979248046875


	Depth: 			4
	String: 		A+A-A-AA+A+A-A+A+A-A-AA+A+A-A-A+A-A-AA+A+A-A-A+A-A-AA+A+A-AA+A-A-AA+A+A-A+A+A-A-AA+A+A-A+A+A-A-AA+A+A-A-A+A-A-AA+A+A-A+A+A-A-AA+A+A-A+A+A-A-AA+A+A-A-A+A-A-AA+A+A-A-A+A-A-AA+A+A-AA+A-A-AA+A+A-A+A+A-A-AA+A+A-A+A+A-A-AA+A+A-A-A+A-A-AA+A+A-A-A+A-A-AA+A+A-A+A+A-A-AA+A+A-A-A+A-A-AA+A+A-A-A+A-A-AA+A+A-AA+A-A-AA+A+A-A+A+A-A-AA+A+A-A+A+A-A-AA+A+A-A-A+A-A-AA+A+A-A-A+A-A-AA+A+A-A+A+A-A-AA+A+A-A-A+A-A-AA+A+A-A-A+A-A-AA+A+A-AA+A-A-AA+A+A-A+A+A-A-AA+A+A-A+A+A-A-AA+A+A-A-A+A-A-AA+A+A-AA+A-A-AA+A+A-A+A+A-A-AA+A+A-A-A+A-A-AA+A+A-A-A+A-A-AA+A+A-AA+A-A-AA+A+A-A+A+A-A-AA+A+A-A+A+A-A-AA+A+A-A-A+A-A-AA+A+A-A+A+A-A-AA+A+A-A+A+A-A-AA+A+A-A-A+A-A-AA+A+A-A-A+A-A-AA+A+A-AA+A-A-AA+A+A-A+A+A-A-AA+A+A-A+A+A-A-AA+A+A-A-A+A-A-AA+A+A-A+A+A-A-AA+A+A-A+A+A-A-AA+A+A-A-A+A-A-AA+A+A-A-A+A-A-AA+A+A-AA+A-A-AA+A+A-A+A+A-A-AA+A+A-A+A+A-A-AA+A+A-A-A+A-A-AA+A+A-A-A+A-A-AA+A+A-A+A+A-A-AA+A+A-A-A+A-A-AA+A+A-A-A+A-A-AA+A+A-AA+A-A-AA+A+A-A+A+A-A-AA+A+A-A+A+A-A-AA+A+A-A-A+A-A-AA+A+A-A+A+A-A-AA+A+A-A+A+A-A-AA+A+A-A-A+A-A-AA+A+A-A-A+A-A-AA+A+A-AA+A-A-AA+A+A-A+A+A-A-AA+A+A-A+A+A-A-AA+A+A-A-A+A-A-AA+A+A-A+A+A-A-AA+A+A-A+A+A-A-AA+A+A-A-A+A-A-AA+A+A-A-A+A-A-AA+A+A-AA+A-A-AA+A+A-A+A+A-A-AA+A+A-A+A+A-A-AA+A+A-A-A+A-A-AA+A+A-A-A+A-A-AA+A+A-A+A+A-A-AA+A+A-A-A+A-A-AA+A+A-A-A+A-A-AA+A+A-AA+A-A-AA+A+A-A+A+A-A-AA+A+A-A+A+A-A-AA+A+A-A-A+A-A-AA+A+A-A-A+A-A-AA+A+A-A+A+A-A-AA+A+A-A-A+A-A-AA+A+A-A-A+A-A-AA+A+A-AA+A-A-AA+A+A-A+A+A-A-AA+A+A-A+A+A-A-AA+A+A-A-A+A-A-AA+A+A-AA+A-A-AA+A+A-A+A+A-A-AA+A+A-A-A+A-A-AA+A+A-A-A+A-A-AA+A+A-AA+A-A-AA+A+A-A+A+A-A-AA+A+A-A+A+A-A-AA+A+A-A-A+A-A-AA+A+A-A+A+A-A-AA+A+A-A+A+A-A-AA+A+A-A-A+A-A-AA+A+A-A-A+A-A-AA+A+A-AA+A-A-AA+A+A-A+A+A-A-AA+A+A-A+A+A-A-AA+A+A-A-A+A-A-AA+A+A-A+A+A-A-AA+A+A-A+A+A-A-AA+A+A-A-A+A-A-AA+A+A-A-A+A-A-AA+A+A-AA+A-A-AA+A+A-A+A+A-A-AA+A+A-A+A+A-A-AA+A+A-A-A+A-A-AA+A+A-A-A+A-A-AA+A+A-A+A+A-A-AA+A+A-A-A+A-A-AA+A+A-A-A+A-A-AA+A+A-AA+A-A-AA+A+A-A+A+A-A-AA+A+A-A+A+A-A-AA+A+A-A-A+A-A-AA+A+A-A-A+A-A-AA+A+A-A+A+A-A-AA+A+A-A-A+A-A-AA+A+A-A-A+A-A-AA+A+A-AA+A-A-AA+A+A-A+A+A-A-AA+A+A-A+A+A-A-AA+A+A-A-A+A-A-AA+A+A-A+A+A-A-AA+A+A-A+A+A-A-AA+A+A-A-A+A-A-AA+A+A-A-A+A-A-AA+A+A-AA+A-A-AA+A+A-A+A+A-A-AA+A+A-A+A+A-A-AA+A+A-A-A+A-A-AA+A+A-A-A+A-A-AA+A+A-A+A+A-A-AA+A+A-A-A+A-A-AA+A+A-A-A+A-A-AA+A+A-AA+A-A-AA+A+A-A+A+A-A-AA+A+A-A+A+A-A-AA+A+A-A-A+A-A-AA+A+A-A-A+A-A-AA+A+A-A+A+A-A-AA+A+A-A-A+A-A-AA+A+A-A-A+A-A-AA+A+A-AA+A-A-AA+A+A-A+A+A-A-AA+A+A-A+A+A-A-AA+A+A-A-A+A-A-AA+A+A-AA+A-A-AA+A+A-A+A+A-A-AA+A+A-A-A+A-A-AA+A+A-A-A+A-A-AA+A+A-AA+A-A-AA+A+A-A+A+A-A-AA+A+A-A+A+A-A-AA+A+A-A-A+A-A-AA+A+A-A+A+A-A-AA+A+A-A+A+A-A-AA+A+A-A-A+A-A-AA+A+A-A-A+A-A-AA+A+A-AA+A-A-AA+A+A-A+A+A-A-AA+A+A-A+A+A-A-AA+A+A-A-A+A-A-AA+A+A-A+A+A-A-AA+A+A-A+A+A-A-AA+A+A-A-A+A-A-AA+A+A-A-A+A-A-AA+A+A-AA+A-A-AA+A+A-A+A+A-A-AA+A+A-A+A+A-A-AA+A+A-A-A+A-A-AA+A+A-A-A+A-A-AA+A+A-A+A+A-A-AA+A+A-A-A+A-A-AA+A+A-A-A+A-A-AA+A+A-AA+A-A-AA+A+A-A+A+A-A-AA+A+A-A+A+A-A-AA+A+A-A-A+A-A-AA+A+A-A-A+A-A-AA+A+A-A+A+A-A-AA+A+A-A-A+A-A-AA+A+A-A-A+A-A-AA+A+A-AA+A-A-AA+A+A-A+A+A-A-AA+A+A-A+A+A-A-AA+A+A-A-A+A-A-AA+A+A-A+A+A-A-AA+A+A-A+A+A-A-AA+A+A-A-A+A-A-AA+A+A-A-A+A-A-AA+A+A-AA+A-A-AA+A+A-A+A+A-A-AA+A+A-A+A+A-A-AA+A+A-A-A+A-A-AA+A+A-A-A+A-A-AA+A+A-A+A+A-A-AA+A+A-A-A+A-A-AA+A+A-A-A+A-A-AA+A+A-AA+A-A-AA+A+A-A+A+A-A-AA+A+A-A+A+A-A-AA+A+A-A-A+A-A-AA+A+A-A-A+A-A-AA+A+A-A+A+A-A-AA+A+A-A-A+A-A-AA+A+A-A-A+A-A-AA+A+A-AA+A-A-AA+A+A-A+A+A-A-AA+A+A-A+A+A-A-AA+A+A-A-A+A-A-AA+A+A-AA+A-A-AA+A+A-A+A+A-A-AA+A+A-A-A+A-A-AA+A+A-A-A+A-A-AA+A+A-AA+A-A-AA+A+A-A+A+A-A-AA+A+A-A+A+A-A-AA+A+A-A-A+A-A-AA+A+A-A+A+A-A-AA+A+A-A+A+A-A-AA+A+A-A-A+A-A-AA+A+A-A-A+A-A-AA+A+A-AA+A-A-AA+A+A-A+A+A-A-AA+A+A-A+A+A-A-AA+A+A-A-A+A-A-AA+A+A-A+A+A-A-AA+A+A-A+A+A-A-AA+A+A-A-A+A-A-AA+A+A-A-A+A-A-AA+A+A-AA+A-A-AA+A+A-A+A+A-A-AA+A+A-A+A+A-A-AA+A+A-A-A+A-A-AA+A+A-A-A+A-A-AA+A+A-A+A+A-A-AA+A+A-A-A+A-A-AA+A+A-A-A+A-A-AA+A+A-AA+A-A-AA+A+A-A+A+A-A-AA+A+A-A+A+A-A-AA+A+A-A-A+A-A-AA+A+A-AA+A-A-AA+A+A-A+A+A-A-AA+A+A-A-A+A-A-AA+A+A-A-A+A-A-AA+A+A-AA+A-A-AA+A+A-A+A+A-A-AA+A+A-A+A+A-A-AA+A+A-A-A+A-A-AA+A+A-A+A+A-A-AA+A+A-A+A+A-A-AA+A+A-A-A+A-A-AA+A+A-A-A+A-A-AA+A+A-AA+A-A-AA+A+A-A+A+A-A-AA+A+A-A+A+A-A-AA+A+A-A-A+A-A-AA+A+A-A-A+A-A-AA+A+A-A+A+A-A-AA+A+A-A-A+A-A-AA+A+A-A-A+A-A-AA+A+A-AA+A-A-AA+A+A-A+A+A-A-AA+A+A-A+A+A-A-AA+A+A-A-A+A-A-AA+A+A-A-A+A-A-AA+A+A-A+A+A-A-AA+A+A-A-A+A-A-AA+A+A-A-A+A-A-AA+A+A-AA+A-A-AA+A+A-A+A+A-A-AA+A+A-A+A+A-A-AA+A+A-A-A+A-A-AA+A+A-AA+A-A-AA+A+A-A+A+A-A-AA+A+A-A-A+A-A-AA+A+A-A-A+A-A-AA+A+A-AA+A-A-AA+A+A-A+A+A-A-AA+A+A-A+A+A-A-AA+A+A-A-A+A-A-AA+A+A-A+A+A-A-AA+A+A-A+A+A-A-AA+A+A-A-A+A-A-AA+A+A-A-A+A-A-AA+A+A-AA+A-A-AA+A+A-A+A+A-A-AA+A+A-A+A+A-A-AA+A+A-A-A+A-A-AA+A+A-A+A+A-A-AA+A+A-A+A+A-A-AA+A+A-A-A+A-A-AA+A+A-A-A+A-A-AA+A+A-AA+A-A-AA+A+A-A+A+A-A-AA+A+A-A+A+A-A-AA+A+A-A-A+A-A-AA+A+A-A-A+A-A-AA+A+A-A+A+A-A-AA+A+A-A-A+A-A-AA+A+A-A-A+A-A-AA+A+A-AA+A-A-AA+A+A-A+A+A-A-AA+A+A-A+A+A-A-AA+A+A-A-A+A-A-AA+A+A-A+A+A-A-AA+A+A-A+A+A-A-AA+A+A-A-A+A-A-AA+A+A-A-A+A-A-AA+A+A-AA+A-A-AA+A+A-A+A+A-A-AA+A+A-A+A+A-A-AA+A+A-A-A+A-A-AA+A+A-A+A+A-A-AA+A+A-A+A+A-A-AA+A+A-A-A+A-A-AA+A+A-A-A+A-A-AA+A+A-AA+A-A-AA+A+A-A+A+A-A-AA+A+A-A+A+A-A-AA+A+A-A-A+A-A-AA+A+A-A-A+A-A-AA+A+A-A+A+A-A-AA+A+A-A-A+A-A-AA+A+A-A-A+A-A-AA+A+A-AA+A-A-AA+A+A-A+A+A-A-AA+A+A-A+A+A-A-AA+A+A-A-A+A-A-AA+A+A-A-A+A-A-AA+A+A-A+A+A-A-AA+A+A-A-A+A-A-AA+A+A-A-A+A-A-AA+A+A-AA+A-A-AA+A+A-A+A+A-A-AA+A+A-A+A+A-A-AA+A+A-A-A+A-A-AA+A+A-AA+A-A-AA+A+A-A+A+A-A-AA+A+A-A-A+A-A-AA+A+A-A-A+A-A-AA+A+A-AA+A-A-AA+A+A-A+A+A-A-AA+A+A-A+A+A-A-AA+A+A-A-A+A-A-AA+A+A-A+A+A-A-AA+A+A-A+A+A-A-AA+A+A-A-A+A-A-AA+A+A-A-A+A-A-AA+A+A-AA+A-A-AA+A+A-A+A+A-A-AA+A+A-A+A+A-A-AA+A+A-A-A+A-A-AA+A+A-A+A+A-A-AA+A+A-A+A+A-A-AA+A+A-A-A+A-A-AA+A+A-A-A+A-A-AA+A+A-AA+A-A-AA+A+A-A+A+A-A-AA+A+A-A+A+A-A-AA+A+A-A-A+A-A-AA+A+A-A-A+A-A-AA+A+A-A+A+A-A-AA+A+A-A-A+A-A-AA+A+A-A-A+A-A-AA+A+A-AA+A-A-AA+A+A-A+A+A-A-AA+A+A-A+A+A-A-AA+A+A-A-A+A-A-AA+A+A-A+A+A-A-AA+A+A-A+A+A-A-AA+A+A-A-A+A-A-AA+A+A-A-A+A-A-AA+A+A-AA+A-A-AA+A+A-A+A+A-A-AA+A+A-A+A+A-A-AA+A+A-A-A+A-A-AA+A+A-A+A+A-A-AA+A+A-A+A+A-A-AA+A+A-A-A+A-A-AA+A+A-A-A+A-A-AA+A+A-AA+A-A-AA+A+A-A+A+A-A-AA+A+A-A+A+A-A-AA+A+A-A-A+A-A-AA+A+A-A-A+A-A-AA+A+A-A+A+A-A-AA+A+A-A-A+A-A-AA+A+A-A-A+A-A-AA+A+A-AA+A-A-AA+A+A-A+A+A-A-AA+A+A-A+A+A-A-AA+A+A-A-A+A-A-AA+A+A-A-A+A-A-AA+A+A-A+A+A-A-AA+A+A-A-A+A-A-AA+A+A-A-A+A-A-AA+A+A-AA+A-A-AA+A+A-A+A+A-A-AA+A+A-A+A+A-A-AA+A+A-A-A+A-A-AA+A+A-AA+A-A-AA+A+A-A+A+A-A-AA+A+A-A-A+A-A-AA+A+A-A-A+A-A-AA+A+A-AA+A-A-AA+A+A-A+A+A-A-AA+A+A-A+A+A-A-AA+A+A-A-A+A-A-AA+A+A-A+A+A-A-AA+A+A-A+A+A-A-AA+A+A-A-A+A-A-AA+A+A-A-A+A-A-AA+A+A-AA+A-A-AA+A+A-A+A+A-A-AA+A+A-A+A+A-A-AA+A+A-A-A+A-A-AA+A+A-A+A+A-A-AA+A+A-A+A+A-A-AA+A+A-A-A+A-A-AA+A+A-A-A+A-A-AA+A+A-AA+A-A-AA+A+A-A+A+A-A-AA+A+A-A+A+A-A-AA+A+A-A-A+A-A-AA+A+A-A-A+A-A-AA+A+A-A+A+A-A-AA+A+A-A-A+A-A-AA+A+A-A-A+A-A-AA+A+A-AA+A-A-AA+A+A-A+A+A-A-AA+A+A-A+A+A-A-AA+A+A-A-A+A-A-AA+A+A-A-A+A-A-AA+A+A-A+A+A-A-AA+A+A-A-A+A-A-AA+A+A-A-A+A-A-AA+A+A-AA+A-A-AA+A+A-A+A+A-A-AA+A+A-A+A+A-A-AA+A+A-A-A+A-A-AA+A+A-A+A+A-A-AA+A+A-A+A+A-A-AA+A+A-A-A+A-A-AA+A+A-A-A+A-A-AA+A+A-AA+A-A-AA+A+A-A+A+A-A-AA+A+A-A+A+A-A-AA+A+A-A-A+A-A-AA+A+A-A-A+A-A-AA+A+A-A+A+A-A-AA+A+A-A-A+A-A-AA+A+A-A-A+A-A-AA+A+A-AA+A-A-AA+A+A-A+A+A-A-AA+A+A-A+A+A-A-AA+A+A-A-A+A-A-AA+A+A-A-A+A-A-AA+A+A-A+A+A-A-AA+A+A-A-A+A-A-AA+A+A-A-A+A-A-AA+A+A-AA+A-A-AA+A+A-A+A+A-A-AA+A+A-A+A+A-A-AA+A+A-A-A+A-A-AA+A+A-AA+A-A-AA+A+A-A+A+A-A-AA+A+A-A-A+A-A-AA+A+A-A-A+A-A-AA+A+A-AA+A-A-AA+A+A-A+A+A-A-AA+A+A-A+A+A-A-AA+A+A-A-A+A-A-AA+A+A-A+A+A-A-AA+A+A-A+A+A-A-AA+A+A-A-A+A-A-AA+A+A-A-A+A-A-AA+A+A-AA+A-A-AA+A+A-A+A+A-A-AA+A+A-A+A+A-A-AA+A+A-A-A+A-A-AA+A+A-A+A+A-A-AA+A+A-A+A+A-A-AA+A+A-A-A+A-A-AA+A+A-A-A+A-A-AA+A+A-AA+A-A-AA+A+A-A+A+A-A-AA+A+A-A+A+A-A-AA+A+A-A-A+A-A-AA+A+A-A-A+A-A-AA+A+A-A+A+A-A-AA+A+A-A-A+A-A-AA+A+A-A-A+A-A-AA+A+A-AA+A-A-AA+A+A-A+A+A-A-AA+A+A-A+A+A-A-AA+A+A-A-A+A-A-AA+A+A-A+A+A-A-AA+A+A-A+A+A-A-AA+A+A-A-A+A-A-AA+A+A-A-A+A-A-AA+A+A-AA+A-A-AA+A+A-A+A+A-A-AA+A+A-A+A+A-A-AA+A+A-A-A+A-A-AA+A+A-A+A+A-A-AA+A+A-A+A+A-A-AA+A+A-A-A+A-A-AA+A+A-A-A+A-A-AA+A+A-AA+A-A-AA+A+A-A+A+A-A-AA+A+A-A+A+A-A-AA+A+A-A-A+A-A-AA+A+A-A-A+A-A-AA+A+A-A+A+A-A-AA+A+A-A-A+A-A-AA+A+A-A-A+A-A-AA+A+A-AA+A-A-AA+A+A-A+A+A-A-AA+A+A-A+A+A-A-AA+A+A-A-A+A-A-AA+A+A-A-A+A-A-AA+A+A-A+A+A-A-AA+A+A-A-A+A-A-AA+A+A-A-A+A-A-AA+A+A-AA+A-A-AA+A+A-A+A+A-A-AA+A+A-A+A+A-A-AA+A+A-A-A+A-A-AA+A+A-AA+A-A-AA+A+A-A+A+A-A-AA+A+A-A-A+A-A-AA+A+A-A-A+A-A-AA+A+A-AA+A-A-AA+A+A-A+A+A-A-AA+A+A-A+A+A-A-AA+A+A-A-A+A-A-AA+A+A-A+A+A-A-AA+A+A-A+A+A-A-AA+A+A-A-A+A-A-AA+A+A-A-A+A-A-AA+A+A-AA+A-A-AA+A+A-A+A+A-A-AA+A+A-A+A+A-A-AA+A+A-A-A+A-A-AA+A+A-A+A+A-A-AA+A+A-A+A+A-A-AA+A+A-A-A+A-A-AA+A+A-A-A+A-A-AA+A+A-AA+A-A-AA+A+A-A+A+A-A-AA+A+A-A+A+A-A-AA+A+A-A-A+A-A-AA+A+A-A-A+A-A-AA+A+A-A+A+A-A-AA+A+A-A-A+A-A-AA+A+A-A-A+A-A-AA+A+A-AA+A-A-AA+A+A-A+A+A-A-AA+A+A-A+A+A-A-AA+A+A-A-A+A-A-AA+A+A-A+A+A-A-AA+A+A-A+A+A-A-AA+A+A-A-A+A-A-AA+A+A-A-A+A-A-AA+A+A-AA+A-A-AA+A+A-A+A+A-A-AA+A+A-A+A+A-A-AA+A+A-A-A+A-A-AA+A+A-A+A+A-A-AA+A+A-A+A+A-A-AA+A+A-A-A+A-A-AA+A+A-A-A+A-A-AA+A+A-AA+A-A-AA+A+A-A+A+A-A-AA+A+A-A+A+A-A-AA+A+A-A-A+A-A-AA+A+A-A-A+A-A-AA+A+A-A+A+A-A-AA+A+A-A-A+A-A-AA+A+A-A-A+A-A-AA+A+A-AA+A-A-AA+A+A-A+A+A-A-AA+A+A-A+A+A-A-AA+A+A-A-A+A-A-AA+A+A-A-A+A-A-AA+A+A-A+A+A-A-AA+A+A-A-A+A-A-AA+A+A-A-A+A-A-AA+A+A-AA+A-A-AA+A+A-A+A+A-A-AA+A+A-A+A+A-A-AA+A+A-A-A+A-A-AA+A+A-AA+A-A-AA+A+A-A+A+A-A-AA+A+A-A-A+A-A-AA+A+A-A-A+A-A-AA+A+A-AA+A-A-AA+A+A-A+A+A-A-AA+A+A-A+A+A-A-AA+A+A-A-A+A-A-AA+A+A-A+A+A-A-AA+A+A-A+A+A-A-AA+A+A-A-A+A-A-AA+A+A-A-A+A-A-AA+A+A-AA+A-A-AA+A+A-A+A+A-A-AA+A+A-A+A+A-A-AA+A+A-A-A+A-A-AA+A+A-A+A+A-A-AA+A+A-A+A+A-A-AA+A+A-A-A+A-A-AA+A+A-A-A+A-A-AA+A+A-AA+A-A-AA+A+A-A+A+A-A-AA+A+A-A+A+A-A-AA+A+A-A-A+A-A-AA+A+A-A-A+A-A-AA+A+A-A+A+A-A-AA+A+A-A-A+A-A-AA+A+A-A-A+A-A-AA+A+A-AA+A-A-AA+A+A-A+A+A-A-AA+A+A-A+A+A-A-AA+A+A-A-A+A-A-AA+A+A-A-A+A-A-AA+A+A-A+A+A-A-AA+A+A-A-A+A-A-AA+A+A-A-A+A-A-AA+A+A-AA+A-A-AA+A+A-A+A+A-A-AA+A+A-A+A+A-A-AA+A+A-A-A+A-A-AA+A+A-A+A+A-A-AA+A+A-A+A+A-A-AA+A+A-A-A+A-A-AA+A+A-A-A+A-A-AA+A+A-AA+A-A-AA+A+A-A+A+A-A-AA+A+A-A+A+A-A-AA+A+A-A-A+A-A-AA+A+A-A-A+A-A-AA+A+A-A+A+A-A-AA+A+A-A-A+A-A-AA+A+A-A-A+A-A-AA+A+A-AA+A-A-AA+A+A-A+A+A-A-AA+A+A-A+A+A-A-AA+A+A-A-A+A-A-AA+A+A-A-A+A-A-AA+A+A-A+A+A-A-AA+A+A-A-A+A-A-AA+A+A-A-A+A-A-AA+A+A-AA+A-A-AA+A+A-A+A+A-A-AA+A+A-A+A+A-A-AA+A+A-A-A+A-A-AA+A+A-AA+A-A-AA+A+A-A+A+A-A-AA+A+A-A-A+A-A-AA+A+A-A-A+A-A-AA+A+A-AA+A-A-AA+A+A-A+A+A-A-AA+A+A-A+A+A-A-AA+A+A-A-A+A-A-AA+A+A-A+A+A-A-AA+A+A-A+A+A-A-AA+A+A-A-A+A-A-AA+A+A-A-A+A-A-AA+A+A-AA+A-A-AA+A+A-A+A+A-A-AA+A+A-A+A+A-A-AA+A+A-A-A+A-A-AA+A+A-A+A+A-A-AA+A+A-A+A+A-A-AA+A+A-A-A+A-A-AA+A+A-A-A+A-A-AA+A+A-AA+A-A-AA+A+A-A+A+A-A-AA+A+A-A+A+A-A-AA+A+A-A-A+A-A-AA+A+A-A-A+A-A-AA+A+A-A+A+A-A-AA+A+A-A-A+A-A-AA+A+A-A-A+A-A-AA+A+A-AA+A-A-AA+A+A-A+A+A-A-AA+A+A-A+A+A-A-AA+A+A-A-A+A-A-AA+A+A-A-A+A-A-AA+A+A-A+A+A-A-AA+A+A-A-A+A-A-AA+A+A-A-A+A-A-AA+A+A-AA+A-A-AA+A+A-A+A+A-A-AA+A+A-A+A+A-A-AA+A+A-A-A+A-A-AA+A+A-A+A+A-A-AA+A+A-A+A+A-A-AA+A+A-A-A+A-A-AA+A+A-A-A+A-A-AA+A+A-AA+A-A-AA+A+A-A+A+A-A-AA+A+A-A+A+A-A-AA+A+A-A-A+A-A-AA+A+A-A-A+A-A-AA+A+A-A+A+A-A-AA+A+A-A-A+A-A-AA+A+A-A-A+A-A-AA+A+A-AA+A-A-AA+A+A-A+A+A-A-AA+A+A-A+A+A-A-AA+A+A-A-A+A-A-AA+A+A-A-A+A-A-AA+A+A-A+A+A-A-AA+A+A-A-A+A-A-AA+A+A-A-A+A-A-AA+A+A-AA+A-A-AA+A+A-A+A+A-A-AA+A+A-A+A+A-A-AA+A+A-A-A+A-A-AA+A+A-AA+A-A-AA+A+A-A+A+A-A-AA+A+A-A-A+A-A-AA+A+A-A-A+A-A-AA+A+A-AA+A-A-AA+A+A-A+A+A-A-AA+A+A-A+A+A-A-AA+A+A-A-A+A-A-AA+A+A-A+A+A-A-AA+A+A-A+A+A-A-AA+A+A-A-A+A-A-AA+A+A-A-A+A-A-AA+A+A-AA+A-A-AA+A+A-A+A+A-A-AA+A+A-A+A+A-A-AA+A+A-A-A+A-A-AA+A+A-A+A+A-A-AA+A+A-A+A+A-A-AA+A+A-A-A+A-A-AA+A+A-A-A+A-A-AA+A+A-AA+A-A-AA+A+A-A+A+A-A-AA+A+A-A+A+A-A-AA+A+A-A-A+A-A-AA+A+A-A-A+A-A-AA+A+A-A+A+A-A-AA+A+A-A-A+A-A-AA+A+A-A-A+A-A-AA+A+A-AA+A-A-AA+A+A-A+A+A-A-AA+A+A-A+A+A-A-AA+A+A-A-A+A-A-AA+A+A-AA+A-A-AA+A+A-A+A+A-A-AA+A+A-A-A+A-A-AA+A+A-A-A+A-A-AA+A+A-AA+A-A-AA+A+A-A+A+A-A-AA+A+A-A+A+A-A-AA+A+A-A-A+A-A-AA+A+A-A+A+A-A-AA+A+A-A+A+A-A-AA+A+A-A-A+A-A-AA+A+A-A-A+A-A-AA+A+A-AA+A-A-AA+A+A-A+A+A-A-AA+A+A-A+A+A-A-AA+A+A-A-A+A-A-AA+A+A-A-A+A-A-AA+A+A-A+A+A-A-AA+A+A-A-A+A-A-AA+A+A-A-A+A-A-AA+A+A-AA+A-A-AA+A+A-A+A+A-A-AA+A+A-A+A+A-A-AA+A+A-A-A+A-A-AA+A+A-A-A+A-A-AA+A+A-A+A+A-A-AA+A+A-A-A+A-A-AA+A+A-A-A+A-A-AA+A+A-AA+A-A-AA+A+A-A+A+A-A-AA+A+A-A+A+A-A-AA+A+A-A-A+A-A-AA+A+A-AA+A-A-AA+A+A-A+A+A-A-AA+A+A-A-A+A-A-AA+A+A-A-A+A-A-AA+A+A-AA+A-A-AA+A+A-A+A+A-A-AA+A+A-A+A+A-A-AA+A+A-A-A+A-A-AA+A+A-A+A+A-A-AA+A+A-A+A+A-A-AA+A+A-A-A+A-A-AA+A+A-A-A+A-A-AA+A+A-AA+A-A-AA+A+A-A+A+A-A-AA+A+A-A+A+A-A-AA+A+A-A-A+A-A-AA+A+A-A+A+A-A-AA+A+A-A+A+A-A-AA+A+A-A-A+A-A-AA+A+A-A-A+A-A-AA+A+A-AA+A-A-AA+A+A-A+A+A-A-AA+A+A-A+A+A-A-AA+A+A-A-A+A-A-AA+A+A-A-A+A-A-AA+A+A-A+A+A-A-AA+A+A-A-A+A-A-AA+A+A-A-A+A-A-AA+A+A-AA+A-A-AA+A+A-A+A+A-A-AA+A+A-A+A+A-A-AA+A+A-A-A+A-A-AA+A+A-A+A+A-A-AA+A+A-A+A+A-A-AA+A+A-A-A+A-A-AA+A+A-A-A+A-A-AA+A+A-AA+A-A-AA+A+A-A+A+A-A-AA+A+A-A+A+A-A-AA+A+A-A-A+A-A-AA+A+A-A+A+A-A-AA+A+A-A+A+A-A-AA+A+A-A-A+A-A-AA+A+A-A-A+A-A-AA+A+A-AA+A-A-AA+A+A-A+A+A-A-AA+A+A-A+A+A-A-AA+A+A-A-A+A-A-AA+A+A-A-A+A-A-AA+A+A-A+A+A-A-AA+A+A-A-A+A-A-AA+A+A-A-A+A-A-AA+A+A-AA+A-A-AA+A+A-A+A+A-A-AA+A+A-A+A+A-A-AA+A+A-A-A+A-A-AA+A+A-A-A+A-A-AA+A+A-A+A+A-A-AA+A+A-A-A+A-A-AA+A+A-A-A+A-A-AA+A+A-AA+A-A-AA+A+A-A+A+A-A-AA+A+A-A+A+A-A-AA+A+A-A-A+A-A-AA+A+A-AA+A-A-AA+A+A-A+A+A-A-AA+A+A-A-A+A-A-AA+A+A-A-A+A-A-AA+A+A-AA+A-A-AA+A+A-A+A+A-A-AA+A+A-A+A+A-A-AA+A+A-A-A+A-A-AA+A+A-A+A+A-A-AA+A+A-A+A+A-A-AA+A+A-A-A+A-A-AA+A+A-A-A+A-A-AA+A+A-AA+A-A-AA+A+A-A+A+A-A-AA+A+A-A+A+A-A-AA+A+A-A-A+A-A-AA+A+A-A+A+A-A-AA+A+A-A+A+A-A-AA+A+A-A-A+A-A-AA+A+A-A-A+A-A-AA+A+A-AA+A-A-AA+A+A-A+A+A-A-AA+A+A-A+A+A-A-AA+A+A-A-A+A-A-AA+A+A-A-A+A-A-AA+A+A-A+A+A-A-AA+A+A-A-A+A-A-AA+A+A-A-A+A-A-AA+A+A-AA+A-A-AA+A+A-A+A+A-A-AA+A+A-A+A+A-A-AA+A+A-A-A+A-A-AA+A+A-A+A+A-A-AA+A+A-A+A+A-A-AA+A+A-A-A+A-A-AA+A+A-A-A+A-A-AA+A+A-AA+A-A-AA+A+A-A+A+A-A-AA+A+A-A+A+A-A-AA+A+A-A-A+A-A-AA+A+A-A+A+A-A-AA+A+A-A+A+A-A-AA+A+A-A-A+A-A-AA+A+A-A-A+A-A-AA+A+A-AA+A-A-AA+A+A-A+A+A-A-AA+A+A-A+A+A-A-AA+A+A-A-A+A-A-AA+A+A-A-A+A-A-AA+A+A-A+A+A-A-AA+A+A-A-A+A-A-AA+A+A-A-A+A-A-AA+A+A-AA+A-A-AA+A+A-A+A+A-A-AA+A+A-A+A+A-A-AA+A+A-A-A+A-A-AA+A+A-A-A+A-A-AA+A+A-A+A+A-A-AA+A+A-A-A+A-A-AA+A+A-A-A+A-A-AA+A+A-AA+A-A-AA+A+A-A+A+A-A-AA+A+A-A+A+A-A-AA+A+A-A-A+A-A-AA+A+A-AA+A-A-AA+A+A-A+A+A-A-AA+A+A-A-A+A-A-AA+A+A-A-A+A-A-AA+A+A-AA+A-A-AA+A+A-A+A+A-A-AA+A+A-A+A+A-A-AA+A+A-A-A+A-A-AA+A+A-A+A+A-A-AA+A+A-A+A+A-A-AA+A+A-A-A+A-A-AA+A+A-A-A+A-A-AA+A+A-AA+A-A-AA+A+A-A+A+A-A-AA+A+A-A+A+A-A-AA+A+A-A-A+A-A-AA+A+A-A+A+A-A-AA+A+A-A+A+A-A-AA+A+A-A-A+A-A-AA+A+A-A-A+A-A-AA+A+A-AA+A-A-AA+A+A-A+A+A-A-AA+A+A-A+A+A-A-AA+A+A-A-A+A-A-AA+A+A-A-A+A-A-AA+A+A-A+A+A-A-AA+A+A-A-A+A-A-AA+A+A-A-A+A-A-AA+A+A-AA+A-A-AA+A+A-A+A+A-A-AA+A+A-A+A+A-A-AA+A+A-A-A+A-A-AA+A+A-A-A+A-A-AA+A+A-A+A+A-A-AA+A+A-A-A+A-A-AA+A+A-A-A+A-A-AA+A+A-AA+A-A-AA+A+A-A+A+A-A-AA+A+A-A+A+A-A-AA+A+A-A-A+A-A-AA+A+A-A+A+A-A-AA+A+A-A+A+A-A-AA+A+A-A-A+A-A-AA+A+A-A-A+A-A-AA+A+A-AA+A-A-AA+A+A-A+A+A-A-AA+A+A-A+A+A-A-AA+A+A-A-A+A-A-AA+A+A-A-A+A-A-AA+A+A-A+A+A-A-AA+A+A-A-A+A-A-AA+A+A-A-A+A-A-AA+A+A-AA+A-A-AA+A+A-A+A+A-A-AA+A+A-A+A+A-A-AA+A+A-A-A+A-A-AA+A+A-A-A+A-A-AA+A+A-A+A+A-A-AA+A+A-A-A+A-A-AA+A+A-A-A+A-A-AA+A+A-AA+A-A-AA+A+A-A+A+A-A-AA+A+A-A+A+A-A-AA+A+A-A-A+A-A-AA+A+A-AA+A-A-AA+A+A-A+A+A-A-AA+A+A-A-A+A-A-AA+A+A-A-A+A-A-AA+A+A-AA+A-A-AA+A+A-A+A+A-A-AA+A+A-A+A+A-A-AA+A+A-A-A+A-A-AA+A+A-A+A+A-A-AA+A+A-A+A+A-A-AA+A+A-A-A+A-A-AA+A+A-A-A+A-A-AA+A+A-AA+A-A-AA+A+A-A+A+A-A-AA+A+A-A+A+A-A-AA+A+A-A-A+A-A-AA+A+A-A+A+A-A-AA+A+A-A+A+A-A-AA+A+A-A-A+A-A-AA+A+A-A-A+A-A-AA+A+A-AA+A-A-AA+A+A-A+A+A-A-AA+A+A-A+A+A-A-AA+A+A-A-A+A-A-AA+A+A-A-A+A-A-AA+A+A-A+A+A-A-AA+A+A-A-A+A-A-AA+A+A-A-A+A-A-AA+A+A-AA+A-A-AA+A+A-A+A+A-A-AA+A+A-A+A+A-A-AA+A+A-A-A+A-A-AA+A+A-A+A+A-A-AA+A+A-A+A+A-A-AA+A+A-A-A+A-A-AA+A+A-A-A+A-A-AA+A+A-AA+A-A-AA+A+A-A+A+A-A-AA+A+A-A+A+A-A-AA+A+A-A-A+A-A-AA+A+A-A+A+A-A-AA+A+A-A+A+A-A-AA+A+A-A-A+A-A-AA+A+A-A-A+A-A-AA+A+A-AA+A-A-AA+A+A-A+A+A-A-AA+A+A-A+A+A-A-AA+A+A-A-A+A-A-AA+A+A-A-A+A-A-AA+A+A-A+A+A-A-AA+A+A-A-A+A-A-AA+A+A-A-A+A-A-AA+A+A-AA+A-A-AA+A+A-A+A+A-A-AA+A+A-A+A+A-A-AA+A+A-A-A+A-A-AA+A+A-A-A+A-A-AA+A+A-A+A+A-A-AA+A+A-A-A+A-A-AA+A+A-A-A+A-A-AA+A+A-AA+A-A-AA+A+A-A+A+A-A-AA+A+A-A+A+A-A-AA+A+A-A-A+A-A-AA+A+A-AA+A-A-AA+A+A-A+A+A-A-AA+A+A-A-A+A-A-AA+A+A-A-A+A-A-AA+A+A-AA+A-A-AA+A+A-A+A+A-A-AA+A+A-A+A+A-A-AA+A+A-A-A+A-A-AA+A+A-A+A+A-A-AA+A+A-A+A+A-A-AA+A+A-A-A+A-A-AA+A+A-A-A+A-A-AA+A+A-AA+A-A-AA+A+A-A+A+A-A-AA+A+A-A+A+A-A-AA+A+A-A-A+A-A-AA+A+A-A+A+A-A-AA+A+A-A+A+A-A-AA+A+A-A-A+A-A-AA+A+A-A-A+A-A-AA+A+A-AA+A-A-AA+A+A-A+A+A-A-AA+A+A-A+A+A-A-AA+A+A-A-A+A-A-AA+A+A-A-A+A-A-AA+A+A-A+A+A-A-AA+A+A-A-A+A-A-AA+A+A-A-A+A-A-AA+A+A-AA+A-A-AA+A+A-A+A+A-A-AA+A+A-A+A+A-A-AA+A+A-A-A+A-A-AA+A+A-A+A+A-A-AA+A+A-A+A+A-A-AA+A+A-A-A+A-A-AA+A+A-A-A+A-A-AA+A+A-AA+A-A-AA+A+A-A+A+A-A-AA+A+A-A+A+A-A-AA+A+A-A-A+A-A-AA+A+A-A+A+A-A-AA+A+A-A+A+A-A-AA+A+A-A-A+A-A-AA+A+A-A-A+A-A-AA+A+A-AA+A-A-AA+A+A-A+A+A-A-AA+A+A-A+A+A-A-AA+A+A-A-A+A-A-AA+A+A-A-A+A-A-AA+A+A-A+A+A-A-AA+A+A-A-A+A-A-AA+A+A-A-A+A-A-AA+A+A-AA+A-A-AA+A+A-A+A+A-A-AA+A+A-A+A+A-A-AA+A+A-A-A+A-A-AA+A+A-A-A+A-A-AA+A+A-A+A+A-A-AA+A+A-A-A+A-A-AA+A+A-A-A+A-A-AA+A+A-AA+A-A-AA+A+A-A+A+A-A-AA+A+A-A+A+A-A-AA+A+A-A-A+A-A-AA+A+A-AA+A-A-AA+A+A-A+A+A-A-AA+A+A-A-A+A-A-AA+A+A-A-A+A-A-AA+A+A-AA+A-A-AA+A+A-A+A+A-A-AA+A+A-A+A+A-A-AA+A+A-A-A+A-A-AA+A+A-A+A+A-A-AA+A+A-A+A+A-A-AA+A+A-A-A+A-A-AA+A+A-A-A+A-A-AA+A+A-AA+A-A-AA+A+A-A+A+A-A-AA+A+A-A+A+A-A-AA+A+A-A-A+A-A-AA+A+A-A+A+A-A-AA+A+A-A+A+A-A-AA+A+A-A-A+A-A-AA+A+A-A-A+A-A-AA+A+A-AA+A-A-AA+A+A-A+A+A-A-AA+A+A-A+A+A-A-AA+A+A-A-A+A-A-AA+A+A-A-A+A-A-AA+A+A-A+A+A-A-AA+A+A-A-A+A-A-AA+A+A-A-A+A-A-AA+A+A-AA+A-A-AA+A+A-A+A+A-A-AA+A+A-A+A+A-A-AA+A+A-A-A+A-A-AA+A+A-A-A+A-A-AA+A+A-A+A+A-A-AA+A+A-A-A+A-A-AA+A+A-A-A+A-A-AA+A+A-AA+A-A-AA+A+A-A+A+A-A-AA+A+A-A+A+A-A-AA+A+A-A-A+A-A-AA+A+A-A+A+A-A-AA+A+A-A+A+A-A-AA+A+A-A-A+A-A-AA+A+A-A-A+A-A-AA+A+A-AA+A-A-AA+A+A-A+A+A-A-AA+A+A-A+A+A-A-AA+A+A-A-A+A-A-AA+A+A-A-A+A-A-AA+A+A-A+A+A-A-AA+A+A-A-A+A-A-AA+A+A-A-A+A-A-AA+A+A-AA+A-A-AA+A+A-A+A+A-A-AA+A+A-A+A+A-A-AA+A+A-A-A+A-A-AA+A+A-A-A+A-A-AA+A+A-A+A+A-A-AA+A+A-A-A+A-A-AA+A+A-A-A+A-A-AA+A+A-AA+A-A-AA+A+A-A+A+A-A-AA+A+A-A+A+A-A-AA+A+A-A-A+A-A-AA+A+A-AA+A-A-AA+A+A-A+A+A-A-AA+A+A-A-A+A-A-AA+A+A-A-A+A-A-AA+A+A-AA+A-A-AA+A+A-A+A+A-A-AA+A+A-A+A+A-A-AA+A+A-A-A+A-A-AA+A+A-A+A+A-A-AA+A+A-A+A+A-A-AA+A+A-A-A+A-A-AA+A+A-A-A+A-A-AA+A+A-AA+A-A-AA+A+A-A+A+A-A-AA+A+A-A+A+A-A-AA+A+A-A-A+A-A-AA+A+A-A+A+A-A-AA+A+A-A+A+A-A-AA+A+A-A-A+A-A-AA+A+A-A-A+A-A-AA+A+A-AA+A-A-AA+A+A-A+A+A-A-AA+A+A-A+A+A-A-AA+A+A-A-A+A-A-AA+A+A-A-A+A-A-AA+A+A-A+A+A-A-AA+A+A-A-A+A-A-AA+A+A-A-A+A-A-AA+A+A-AA+A-A-AA+A+A-A+A+A-A-AA+A+A-A+A+A-A-AA+A+A-A-A+A-A-AA+A+A-A-A+A-A-AA+A+A-A+A+A-A-AA+A+A-A-A+A-A-AA+A+A-A-A+A-A-AA+A+A-AA+A-A-AA+A+A-A+A+A-A-AA+A+A-A+A+A-A-AA+A+A-A-A+A-A-AA+A+A-A+A+A-A-AA+A+A-A+A+A-A-AA+A+A-A-A+A-A-AA+A+A-A-A+A-A-AA+A+A-AA+A-A-AA+A+A-A+A+A-A-AA+A+A-A+A+A-A-AA+A+A-A-A+A-A-AA+A+A-A-A+A-A-AA+A+A-A+A+A-A-AA+A+A-A-A+A-A-AA+A+A-A-A+A-A-AA+A+A-AA+A-A-AA+A+A-A+A+A-A-AA+A+A-A+A+A-A-AA+A+A-A-A+A-A-AA+A+A-A-A+A-A-AA+A+A-A+A+A-A-AA+A+A-A-A+A-A-AA+A+A-A-A+A-A-AA+A+A-AA+A-A-AA+A+A-A+A+A-A-AA+A+A-A+A+A-A-AA+A+A-A-A+A-A-AA+A+A-AA+A-A-AA+A+A-A+A+A-A-AA+A+A-A-A+A-A-AA+A+A-A-A+A-A-AA+A+A-AA+A-A-AA+A+A-A+A+A-A-AA+A+A-A+A+A-A-AA+A+A-A-A+A-A-AA+A+A-A+A+A-A-AA+A+A-A+A+A-A-AA+A+A-A-A+A-A-AA+A+A-A-A+A-A-AA+A+A-AA+A-A-AA+A+A-A+A+A-A-AA+A+A-A+A+A-A-AA+A+A-A-A+A-A-AA+A+A-A+A+A-A-AA+A+A-A+A+A-A-AA+A+A-A-A+A-A-AA+A+A-A-A+A-A-AA+A+A-AA+A-A-AA+A+A-A+A+A-A-AA+A+A-A+A+A-A-AA+A+A-A-A+A-A-AA+A+A-A-A+A-A-AA+A+A-A+A+A-A-AA+A+A-A-A+A-A-AA+A+A-A-A+A-A-AA+A+A-AA+A-A-AA+A+A-A+A+A-A-AA+A+A-A+A+A-A-AA+A+A-A-A+A-A-AA+A+A-AA+A-A-AA+A+A-A+A+A-A-AA+A+A-A-A+A-A-AA+A+A-A-A+A-A-AA+A+A-AA+A-A-AA+A+A-A+A+A-A-AA+A+A-A+A+A-A-AA+A+A-A-A+A-A-AA+A+A-A+A+A-A-AA+A+A-A+A+A-A-AA+A+A-A-A+A-A-AA+A+A-A-A+A-A-AA+A+A-AA+A-A-AA+A+A-A+A+A-A-AA+A+A-A+A+A-A-AA+A+A-A-A+A-A-AA+A+A-A-A+A-A-AA+A+A-A+A+A-A-AA+A+A-A-A+A-A-AA+A+A-A-A+A-A-AA+A+A-AA+A-A-AA+A+A-A+A+A-A-AA+A+A-A+A+A-A-AA+A+A-A-A+A-A-AA+A+A-A-A+A-A-AA+A+A-A+A+A-A-AA+A+A-A-A+A-A-AA+A+A-A-A+A-A-AA+A+A-AA+A-A-AA+A+A-A+A+A-A-AA+A+A-A+A+A-A-AA+A+A-A-A+A-A-AA+A+A-AA+A-A-AA+A+A-A+A+A-A-AA+A+A-A-A+A-A-AA+A+A-A-A+A-A-AA+A+A-AA+A-A-AA+A+A-A+A+A-A-AA+A+A-A+A+A-A-AA+A+A-A-A+A-A-AA+A+A-A+A+A-A-AA+A+A-A+A+A-A-AA+A+A-A-A+A-A-AA+A+A-A-A+A-A-AA+A+A-AA+A-A-AA+A+A-A+A+A-A-AA+A+A-A+A+A-A-AA+A+A-A-A+A-A-AA+A+A-A+A+A-A-AA+A+A-A+A+A-A-AA+A+A-A-A+A-A-AA+A+A-A-A+A-A-AA+A+A-AA+A-A-AA+A+A-A+A+A-A-AA+A+A-A+A+A-A-AA+A+A-A-A+A-A-AA+A+A-A-A+A-A-AA+A+A-A+A+A-A-AA+A+A-A-A+A-A-AA+A+A-A-A+A-A-AA+A+A-AA+A-A-AA+A+A-A+A+A-A-AA+A+A-A+A+A-A-AA+A+A-A-A+A-A-AA+A+A-A+A+A-A-AA+A+A-A+A+A-A-AA+A+A-A-A+A-A-AA+A+A-A-A+A-A-AA+A+A-AA+A-A-AA+A+A-A+A+A-A-AA+A+A-A+A+A-A-AA+A+A-A-A+A-A-AA+A+A-A+A+A-A-AA+A+A-A+A+A-A-AA+A+A-A-A+A-A-AA+A+A-A-A+A-A-AA+A+A-AA+A-A-AA+A+A-A+A+A-A-AA+A+A-A+A+A-A-AA+A+A-A-A+A-A-AA+A+A-A-A+A-A-AA+A+A-A+A+A-A-AA+A+A-A-A+A-A-AA+A+A-A-A+A-A-AA+A+A-AA+A-A-AA+A+A-A+A+A-A-AA+A+A-A+A+A-A-AA+A+A-A-A+A-A-AA+A+A-A-A+A-A-AA+A+A-A+A+A-A-AA+A+A-A-A+A-A-AA+A+A-A-A+A-A-AA+A+A-AA+A-A-AA+A+A-A+A+A-A-AA+A+A-A+A+A-A-AA+A+A-A-A+A-A-AA+A+A-AA+A-A-AA+A+A-A+A+A-A-AA+A+A-A-A+A-A-AA+A+A-A-A+A-A-AA+A+A-AA+A-A-AA+A+A-A+A+A-A-AA+A+A-A+A+A-A-AA+A+A-A-A+A-A-AA+A+A-A+A+A-A-AA+A+A-A+A+A-A-AA+A+A-A-A+A-A-AA+A+A-A-A+A-A-AA+A+A-AA+A-A-AA+A+A-A+A+A-A-AA+A+A-A+A+A-A-AA+A+A-A-A+A-A-AA+A+A-A+A+A-A-AA+A+A-A+A+A-A-AA+A+A-A-A+A-A-AA+A+A-A-A+A-A-AA+A+A-AA+A-A-AA+A+A-A+A+A-A-AA+A+A-A+A+A-A-AA+A+A-A-A+A-A-AA+A+A-A-A+A-A-AA+A+A-A+A+A-A-AA+A+A-A-A+A-A-AA+A+A-A-A+A-A-AA+A+A-AA+A-A-AA+A+A-A+A+A-A-AA+A+A-A+A+A-A-AA+A+A-A-A+A-A-AA+A+A-A+A+A-A-AA+A+A-A+A+A-A-AA+A+A-A-A+A-A-AA+A+A-A-A+A-A-AA+A+A-AA+A-A-AA+A+A-A+A+A-A-AA+A+A-A+A+A-A-AA+A+A-A-A+A-A-AA+A+A-A+A+A-A-AA+A+A-A+A+A-A-AA+A+A-A-A+A-A-AA+A+A-A-A+A-A-AA+A+A-AA+A-A-AA+A+A-A+A+A-A-AA+A+A-A+A+A-A-AA+A+A-A-A+A-A-AA+A+A-A-A+A-A-AA+A+A-A+A+A-A-AA+A+A-A-A+A-A-AA+A+A-A-A+A-A-AA+A+A-AA+A-A-AA+A+A-A+A+A-A-AA+A+A-A+A+A-A-AA+A+A-A-A+A-A-AA+A+A-A-A+A-A-AA+A+A-A+A+A-A-AA+A+A-A-A+A-A-AA+A+A-A-A+A-A-AA+A+A-AA+A-A-AA+A+A-A+A+A-A-AA+A+A-A+A+A-A-AA+A+A-A-A+A-A-AA+A+A-AA+A-A-AA+A+A-A+A+A-A-AA+A+A-A-A+A-A-AA+A+A-A-A+A-A-AA+A+A-AA+A-A-AA+A+A-A+A+A-A-AA+A+A-A+A+A-A-AA+A+A-A-A+A-A-AA+A+A-A+A+A-A-AA+A+A-A+A+A-A-AA+A+A-A-A+A-A-AA+A+A-A-A+A-A-AA+A+A-AA+A-A-AA+A+A-A+A+A-A-AA+A+A-A+A+A-A-AA+A+A-A-A+A-A-AA+A+A-A+A+A-A-AA+A+A-A+A+A-A-AA+A+A-A-A+A-A-AA+A+A-A-A+A-A-AA+A+A-AA+A-A-AA+A+A-A+A+A-A-AA+A+A-A+A+A-A-AA+A+A-A-A+A-A-AA+A+A-A-A+A-A-AA+A+A-A+A+A-A-AA+A+A-A-A+A-A-AA+A+A-A-A+A-A-AA+A+A-AA+A-A-AA+A+A-A+A+A-A-AA+A+A-A+A+A-A-AA+A+A-A-A+A-A-AA+A+A-A-A+A-A-AA+A+A-A+A+A-A-AA+A+A-A-A+A-A-AA+A+A-A-A+A-A-AA+A+A-AA+A-A-AA+A+A-A+A+A-A-AA+A+A-A+A+A-A-AA+A+A-A-A+A-A-AA+A+A-A+A+A-A-AA+A+A-A+A+A-A-AA+A+A-A-A+A-A-AA+A+A-A-A+A-A-AA+A+A-AA+A-A-AA+A+A-A+A+A-A-AA+A+A-A+A+A-A-AA+A+A-A-A+A-A-AA+A+A-A-A+A-A-AA+A+A-A+A+A-A-AA+A+A-A-A+A-A-AA+A+A-A-A+A-A-AA+A+A-AA+A-A-AA+A+A-A+A+A-A-AA+A+A-A+A+A-A-AA+A+A-A-A+A-A-AA+A+A-A-A+A-A-AA+A+A-A+A+A-A-AA+A+A-A-A+A-A-AA+A+A-A-A+A-A-AA+A+A-AA+A-A-AA+A+A-A+A+A-A-AA+A+A-A+A+A-A-AA+A+A-A-A+A-A-AA+A+A-AA+A-A-AA+A+A-A+A+A-A-AA+A+A-A-A+A-A-AA+A+A-A-A+A-A-AA+A+A-AA+A-A-AA+A+A-A+A+A-A-AA+A+A-A+A+A-A-AA+A+A-A-A+A-A-AA+A+A-A+A+A-A-AA+A+A-A+A+A-A-AA+A+A-A-A+A-A-AA+A+A-A-A+A-A-AA+A+A-AA+A-A-AA+A+A-A+A+A-A-AA+A+A-A+A+A-A-AA+A+A-A-A+A-A-AA+A+A-A+A+A-A-AA+A+A-A+A+A-A-AA+A+A-A-A+A-A-AA+A+A-A-A+A-A-AA+A+A-AA+A-A-AA+A+A-A+A+A-A-AA+A+A-A+A+A-A-AA+A+A-A-A+A-A-AA+A+A-A-A+A-A-AA+A+A-A+A+A-A-AA+A+A-A-A+A-A-AA+A+A-A-A+A-A-AA+A+A-AA+A-A-AA+A+A-A+A+A-A-AA+A+A-A+A+A-A-AA+A+A-A-A+A-A-AA+A+A-A+A+A-A-AA+A+A-A+A+A-A-AA+A+A-A-A+A-A-AA+A+A-A-A+A-A-AA+A+A-AA+A-A-AA+A+A-A+A+A-A-AA+A+A-A+A+A-A-AA+A+A-A-A+A-A-AA+A+A-A+A+A-A-AA+A+A-A+A+A-A-AA+A+A-A-A+A-A-AA+A+A-A-A+A-A-AA+A+A-AA+A-A-AA+A+A-A+A+A-A-AA+A+A-A+A+A-A-AA+A+A-A-A+A-A-AA+A+A-A-A+A-A-AA+A+A-A+A+A-A-AA+A+A-A-A+A-A-AA+A+A-A-A+A-A-AA+A+A-AA+A-A-AA+A+A-A+A+A-A-AA+A+A-A+A+A-A-AA+A+A-A-A+A-A-AA+A+A-A-A+A-A-AA+A+A-A+A+A-A-AA+A+A-A-A+A-A-AA+A+A-A-A+A-A-AA+A+A-AA+A-A-AA+A+A-A+A+A-A-AA+A+A-A+A+A-A-AA+A+A-A-A+A-A-AA+A+A-AA+A-A-AA+A+A-A+A+A-A-AA+A+A-A-A+A-A-AA+A+A-A-A+A-A-AA+A+A-AA+A-A-AA+A+A-A+A+A-A-AA+A+A-A+A+A-A-AA+A+A-A-A+A-A-AA+A+A-A+A+A-A-AA+A+A-A+A+A-A-AA+A+A-A-A+A-A-AA+A+A-A-A+A-A-AA+A+A-AA+A-A-AA+A+A-A+A+A-A-AA+A+A-A+A+A-A-AA+A+A-A-A+A-A-AA+A+A-A+A+A-A-AA+A+A-A+A+A-A-AA+A+A-A-A+A-A-AA+A+A-A-A+A-A-AA+A+A-AA+A-A-AA+A+A-A+A+A-A-AA+A+A-A+A+A-A-AA+A+A-A-A+A-A-AA+A+A-A-A+A-A-AA+A+A-A+A+A-A-AA+A+A-A-A+A-A-AA+A+A-A-A+A-A-AA+A+A-AA+A-A-AA+A+A-A+A+A-A-AA+A+A-A+A+A-A-AA+A+A-A-A+A-A-AA+A+A-A+A+A-A-AA+A+A-A+A+A-A-AA+A+A-A-A+A-A-AA+A+A-A-A+A-A-AA+A+A-AA+A-A-AA+A+A-A+A+A-A-AA+A+A-A+A+A-A-AA+A+A-A-A+A-A-AA+A+A-A+A+A-A-AA+A+A-A+A+A-A-AA+A+A-A-A+A-A-AA+A+A-A-A+A-A-AA+A+A-AA+A-A-AA+A+A-A+A+A-A-AA+A+A-A+A+A-A-AA+A+A-A-A+A-A-AA+A+A-A-A+A-A-AA+A+A-A+A+A-A-AA+A+A-A-A+A-A-AA+A+A-A-A+A-A-AA+A+A-AA+A-A-AA+A+A-A+A+A-A-AA+A+A-A+A+A-A-AA+A+A-A-A+A-A-AA+A+A-A-A+A-A-AA+A+A-A+A+A-A-AA+A+A-A-A+A-A-AA+A+A-A-A+A-A-AA+A+A-AA+A-A-AA+A+A-A+A+A-A-AA+A+A-A+A+A-A-AA+A+A-A-A+A-A-AA+A+A-AA+A-A-AA+A+A-A+A+A-A-AA+A+A-A-A+A-A-AA+A+A-A-A+A-A-AA+A+A-AA+A-A-AA+A+A-A+A+A-A-AA+A+A-A+A+A-A-AA+A+A-A-A+A-A-AA+A+A-A+A+A-A-AA+A+A-A+A+A-A-AA+A+A-A-A+A-A-AA+A+A-A-A+A-A-AA+A+A-AA+A-A-AA+A+A-A+A+A-A-AA+A+A-A+A+A-A-AA+A+A-A-A+A-A-AA+A+A-A+A+A-A-AA+A+A-A+A+A-A-AA+A+A-A-A+A-A-AA+A+A-A-A+A-A-AA+A+A-AA+A-A-AA+A+A-A+A+A-A-AA+A+A-A+A+A-A-AA+A+A-A-A+A-A-AA+A+A-A-A+A-A-AA+A+A-A+A+A-A-AA+A+A-A-A+A-A-AA+A+A-A-A+A-A-AA+A+A-AA+A-A-AA+A+A-A+A+A-A-AA+A+A-A+A+A-A-AA+A+A-A-A+A-A-AA+A+A-A-A+A-A-AA+A+A-A+A+A-A-AA+A+A-A-A+A-A-AA+A+A-A-A+A-A-AA+A+A-AA+A-A-AA+A+A-A+A+A-A-AA+A+A-A+A+A-A-AA+A+A-A-A+A-A-AA+A+A-A+A+A-A-AA+A+A-A+A+A-A-AA+A+A-A-A+A-A-AA+A+A-A-A+A-A-AA+A+A-AA+A-A-AA+A+A-A+A+A-A-AA+A+A-A+A+A-A-AA+A+A-A-A+A-A-AA+A+A-A-A+A-A-AA+A+A-A+A+A-A-AA+A+A-A-A+A-A-AA+A+A-A-A+A-A-AA+A+A-AA+A-A-AA+A+A-A+A+A-A-AA+A+A-A+A+A-A-AA+A+A-A-A+A-A-AA+A+A-A-A+A-A-AA+A+A-A+A+A-A-AA+A+A-A-A+A-A-AA+A+A-A-A+A-A-AA+A+A-AA+A-A-AA+A+A-A+A+A-A-AA+A+A-A+A+A-A-AA+A+A-A-A+A-A-AA+A+A-AA+A-A-AA+A+A-A+A+A-A-AA+A+A-A-A+A-A-AA+A+A-A-A+A-A-AA+A+A-AA+A-A-AA+A+A-A+A+A-A-AA+A+A-A+A+A-A-AA+A+A-A-A+A-A-AA+A+A-A+A+A-A-AA+A+A-A+A+A-A-AA+A+A-A-A+A-A-AA+A+A-A-A+A-A-AA+A+A-AA+A-A-AA+A+A-A+A+A-A-AA+A+A-A+A+A-A-AA+A+A-A-A+A-A-AA+A+A-A+A+A-A-AA+A+A-A+A+A-A-AA+A+A-A-A+A-A-AA+A+A-A-A+A-A-AA+A+A-AA+A-A-AA+A+A-A+A+A-A-AA+A+A-A+A+A-A-AA+A+A-A-A+A-A-AA+A+A-A-A+A-A-AA+A+A-A+A+A-A-AA+A+A-A-A+A-A-AA+A+A-A-A+A-A-AA+A+A-AA+A-A-AA+A+A-A+A+A-A-AA+A+A-A+A+A-A-AA+A+A-A-A+A-A-AA+A+A-A-A+A-A-AA+A+A-A+A+A-A-AA+A+A-A-A+A-A-AA+A+A-A-A+A-A-AA+A+A-AA+A-A-AA+A+A-A+A+A-A-AA+A+A-A+A+A-A-AA+A+A-A-A+A-A-AA+A+A-A+A+A-A-AA+A+A-A+A+A-A-AA+A+A-A-A+A-A-AA+A+A-A-A+A-A-AA+A+A-AA+A-A-AA+A+A-A+A+A-A-AA+A+A-A+A+A-A-AA+A+A-A-A+A-A-AA+A+A-A-A+A-A-AA+A+A-A+A+A-A-AA+A+A-A-A+A-A-AA+A+A-A-A+A-A-AA+A+A-AA+A-A-AA+A+A-A+A+A-A-AA+A+A-A+A+A-A-AA+A+A-A-A+A-A-AA+A+A-A-A+A-A-AA+A+A-A+A+A-A-AA+A+A-A-A+A-A-AA+A+A-A-A+A-A-AA+A+A-AA+A-A-AA+A+A-A+A+A-A-AA+A+A-A+A+A-A-AA+A+A-A-A+A-A-AA+A+A-AA+A-A-AA+A+A-A+A+A-A-AA+A+A-A-A+A-A-AA+A+A-A-A+A-A-AA+A+A-AA+A-A-AA+A+A-A+A+A-A-AA+A+A-A+A+A-A-AA+A+A-A-A+A-A-AA+A+A-A+A+A-A-AA+A+A-A+A+A-A-AA+A+A-A-A+A-A-AA+A+A-A-A+A-A-AA+A+A-AA+A-A-AA+A+A-A+A+A-A-AA+A+A-A+A+A-A-AA+A+A-A-A+A-A-AA+A+A-A+A+A-A-AA+A+A-A+A+A-A-AA+A+A-A-A+A-A-AA+A+A-A-A+A-A-AA+A+A-AA+A-A-AA+A+A-A+A+A-A-AA+A+A-A+A+A-A-AA+A+A-A-A+A-A-AA+A+A-A-A+A-A-AA+A+A-A+A+A-A-AA+A+A-A-A+A-A-AA+A+A-A-A+A-A-AA+A+A-AA+A-A-AA+A+A-A+A+A-A-AA+A+A-A+A+A-A-AA+A+A-A-A+A-A-AA+A+A-AA+A-A-AA+A+A-A+A+A-A-AA+A+A-A-A+A-A-AA+A+A-A-A+A-A-AA+A+A-AA+A-A-AA+A+A-A+A+A-A-AA+A+A-A+A+A-A-AA+A+A-A-A+A-A-AA+A+A-A+A+A-A-AA+A+A-A+A+A-A-AA+A+A-A-A+A-A-AA+A+A-A-A+A-A-AA+A+A-AA+A-A-AA+A+A-A+A+A-A-AA+A+A-A+A+A-A-AA+A+A-A-A+A-A-AA+A+A-A-A+A-A-AA+A+A-A+A+A-A-AA+A+A-A-A+A-A-AA+A+A-A-A+A-A-AA+A+A-AA+A-A-AA+A+A-A+A+A-A-AA+A+A-A+A+A-A-AA+A+A-A-A+A-A-AA+A+A-A-A+A-A-AA+A+A-A+A+A-A-AA+A+A-A-A+A-A-AA+A+A-A-A+A-A-AA+A+A-AA+A-A-AA+A+A-A+A+A-A-AA+A+A-A+A+A-A-AA+A+A-A-A+A-A-AA+A+A-AA+A-A-AA+A+A-A+A+A-A-AA+A+A-A-A+A-A-AA+A+A-A-A+A-A-AA+A+A-AA+A-A-AA+A+A-A+A+A-A-AA+A+A-A+A+A-A-AA+A+A-A-A+A-A-AA+A+A-A+A+A-A-AA+A+A-A+A+A-A-AA+A+A-A-A+A-A-AA+A+A-A-A+A-A-AA+A+A-AA+A-A-AA+A+A-A+A+A-A-AA+A+A-A+A+A-A-AA+A+A-A-A+A-A-AA+A+A-A+A+A-A-AA+A+A-A+A+A-A-AA+A+A-A-A+A-A-AA+A+A-A-A+A-A-AA+A+A-AA+A-A-AA+A+A-A+A+A-A-AA+A+A-A+A+A-A-AA+A+A-A-A+A-A-AA+A+A-A-A+A-A-AA+A+A-A+A+A-A-AA+A+A-A-A+A-A-AA+A+A-A-A+A-A-AA+A+A-AA+A-A-AA+A+A-A+A+A-A-AA+A+A-A+A+A-A-AA+A+A-A-A+A-A-AA+A+A-A+A+A-A-AA+A+A-A+A+A-A-AA+A+A-A-A+A-A-AA+A+A-A-A+A-A-AA+A+A-AA+A-A-AA+A+A-A+A+A-A-AA+A+A-A+A+A-A-AA+A+A-A-A+A-A-AA+A+A-A+A+A-A-AA+A+A-A+A+A-A-AA+A+A-A-A+A-A-AA+A+A-A-A+A-A-AA+A+A-AA+A-A-AA+A+A-A+A+A-A-AA+A+A-A+A+A-A-AA+A+A-A-A+A-A-AA+A+A-A-A+A-A-AA+A+A-A+A+A-A-AA+A+A-A-A+A-A-AA+A+A-A-A+A-A-AA+A+A-AA+A-A-AA+A+A-A+A+A-A-AA+A+A-A+A+A-A-AA+A+A-A-A+A-A-AA+A+A-A-A+A-A-AA+A+A-A+A+A-A-AA+A+A-A-A+A-A-AA+A+A-A-A+A-A-AA+A+A-AA+A-A-AA+A+A-A+A+A-A-AA+A+A-A+A+A-A-AA+A+A-A-A+A-A-AA+A+A-AA+A-A-AA+A+A-A+A+A-A-AA+A+A-A-A+A-A-AA+A+A-A-A+A-A-AA+A+A-AA+A-A-AA+A+A-A+A+A-A-AA+A+A-A+A+A-A-AA+A+A-A-A+A-A-AA+A+A-A+A+A-A-AA+A+A-A+A+A-A-AA+A+A-A-A+A-A-AA+A+A-A-A+A-A-AA+A+A-AA+A-A-AA+A+A-A+A+A-A-AA+A+A-A+A+A-A-AA+A+A-A-A+A-A-AA+A+A-A+A+A-A-AA+A+A-A+A+A-A-AA+A+A-A-A+A-A-AA+A+A-A-A+A-A-AA+A+A-AA+A-A-AA+A+A-A+A+A-A-AA+A+A-A+A+A-A-AA+A+A-A-A+A-A-AA+A+A-A-A+A-A-AA+A+A-A+A+A-A-AA+A+A-A-A+A-A-AA+A+A-A-A+A-A-AA+A+A-AA+A-A-AA+A+A-A+A+A-A-AA+A+A-A+A+A-A-AA+A+A-A-A+A-A-AA+A+A-A+A+A-A-AA+A+A-A+A+A-A-AA+A+A-A-A+A-A-AA+A+A-A-A+A-A-AA+A+A-AA+A-A-AA+A+A-A+A+A-A-AA+A+A-A+A+A-A-AA+A+A-A-A+A-A-AA+A+A-A+A+A-A-AA+A+A-A+A+A-A-AA+A+A-A-A+A-A-AA+A+A-A-A+A-A-AA+A+A-AA+A-A-AA+A+A-A+A+A-A-AA+A+A-A+A+A-A-AA+A+A-A-A+A-A-AA+A+A-A-A+A-A-AA+A+A-A+A+A-A-AA+A+A-A-A+A-A-AA+A+A-A-A+A-A-AA+A+A-AA+A-A-AA+A+A-A+A+A-A-AA+A+A-A+A+A-A-AA+A+A-A-A+A-A-AA+A+A-A-A+A-A-AA+A+A-A+A+A-A-AA+A+A-A-A+A-A-AA+A+A-A-A+A-A-AA+A+A-AA+A-A-AA+A+A-A+A+A-A-AA+A+A-A+A+A-A-AA+A+A-A-A+A-A-AA+A+A-AA+A-A-AA+A+A-A+A+A-A-AA+A+A-A-A+A-A-AA+A+A-A-A+A-A-AA+A+A-AA+A-A-AA+A+A-A+A+A-A-AA+A+A-A+A+A-A-AA+A+A-A-A+A-A-AA+A+A-A+A+A-A-AA+A+A-A+A+A-A-AA+A+A-A-A+A-A-AA+A+A-A-A+A-A-AA+A+A-AA+A-A-AA+A+A-A+A+A-A-AA+A+A-A+A+A-A-AA+A+A-A-A+A-A-AA+A+A-A+A+A-A-AA+A+A-A+A+A-A-AA+A+A-A-A+A-A-AA+A+A-A-A+A-A-AA+A+A-AA+A-A-AA+A+A-A+A+A-A-AA+A+A-A+A+A-A-AA+A+A-A-A+A-A-AA+A+A-A-A+A-A-AA+A+A-A+A+A-A-AA+A+A-A-A+A-A-AA+A+A-A-A+A-A-AA+A+A-AA+A-A-AA+A+A-A+A+A-A-AA+A+A-A+A+A-A-AA+A+A-A-A+A-A-AA+A+A-A-A+A-A-AA+A+A-A+A+A-A-AA+A+A-A-A+A-A-AA+A+A-A-A+A-A-AA+A+A-AA+A-A-AA+A+A-A+A+A-A-AA+A+A-A+A+A-A-AA+A+A-A-A+A-A-AA+A+A-A+A+A-A-AA+A+A-A+A+A-A-AA+A+A-A-A+A-A-AA+A+A-A-A+A-A-AA+A+A-AA+A-A-AA+A+A-A+A+A-A-AA+A+A-A+A+A-A-AA+A+A-A-A+A-A-AA+A+A-A-A+A-A-AA+A+A-A+A+A-A-AA+A+A-A-A+A-A-AA+A+A-A-A+A-A-AA+A+A-AA+A-A-AA+A+A-A+A+A-A-AA+A+A-A+A+A-A-AA+A+A-A-A+A-A-AA+A+A-A-A+A-A-AA+A+A-A+A+A-A-AA+A+A-A-A+A-A-AA+A+A-A-A+A-A-AA+A+A-AA+A-A-AA+A+A-A+A+A-A-AA+A+A-A+A+A-A-AA+A+A-A-A+A-A-AA+A+A-AA+A-A-AA+A+A-A+A+A-A-AA+A+A-A-A+A-A-AA+A+A-A-A+A-A-AA+A+A-AA+A-A-AA+A+A-A+A+A-A-AA+A+A-A+A+A-A-AA+A+A-A-A+A-A-AA+A+A-A+A+A-A-AA+A+A-A+A+A-A-AA+A+A-A-A+A-A-AA+A+A-A-A+A-A-AA+A+A-AA+A-A-AA+A+A-A+A+A-A-AA+A+A-A+A+A-A-AA+A+A-A-A+A-A-AA+A+A-A+A+A-A-AA+A+A-A+A+A-A-AA+A+A-A-A+A-A-AA+A+A-A-A+A-A-AA+A+A-AA+A-A-AA+A+A-A+A+A-A-AA+A+A-A+A+A-A-AA+A+A-A-A+A-A-AA+A+A-A-A+A-A-AA+A+A-A+A+A-A-AA+A+A-A-A+A-A-AA+A+A-A-A+A-A-AA+A+A-AA+A-A-AA+A+A-A+A+A-A-AA+A+A-A+A+A-A-AA+A+A-A-A+A-A-AA+A+A-A
	String length: 	30427
	Derivation Kernel/Function Runtimes (Milliseconds):
		1.  Successor counting: 			7.4481964111328125
		2.  Scan/prefix-sum of counts: 		0.17690658569335938
		3.  Rewriting: 						50.382137298583984


Interpretation Runtimes (Milliseconds):
		1.  Setting local matrices: 		961.0559940338135

Total Runtimes (Milliseconds):
	Derivation: 		508.58592987060547
	Interpretation: 	2965.923070907593